Type,Name,Request Count,Failure Count,Median Response Time,Average Response Time,Min Response Time,Max Response Time,Average Content Size,Requests/s,Failures/s,50%,66%,75%,80%,90%,95%,98%,99%,99.9%,99.99%,100%
GET,/fiber_ms/v2/search/suggestions?query=Accumulation of Variation During Reproduction&user_goal=CBSE&user_exam=10th CBSE&locale=en&goal=&exam=,32,0,23,24.78125,17,59,218.0,0.517704571394476,0.0,23,23,27,28,29,40,59,59,59,59,59
GET,/fiber_ms/v2/search/suggestions?query=Algebraic Methods of Solving a Pair of Linear Equations&user_goal=CBSE&user_exam=10th CBSE&locale=en&goal=&exam=,29,0,24,26.79310344827586,17,51,261.0,0.46916976782624387,0.0,24,27,28,30,41,49,51,51,51,51,51
GET,/fiber_ms/v2/search/suggestions?query=Alternative or Non-Conventional Sources of Energy&user_goal=CBSE&user_exam=10th CBSE&locale=en&goal=&exam=,26,0,23,25.192307692307693,18,58,221.0,0.4206349642580117,0.0,23,25,25,26,30,31,58,58,58,58,58
GET,/fiber_ms/v2/search/suggestions?query=Alternative or Non-conventional Sources of Energy&user_goal=CBSE&user_exam=10th CBSE&locale=en&goal=&exam=,15,0,23,23.933333333333334,21,31,221.0,0.24267401784116063,0.0,23,24,24,27,28,31,31,31,31,31,31
GET,/fiber_ms/v2/search/suggestions?query=An Overview of Natural Resource Management&user_goal=CBSE&user_exam=10th CBSE&locale=en&goal=&exam=,17,0,24,25.41176470588235,19,46,233.0,0.27503055355331535,0.0,24,26,26,27,30,46,46,46,46,46,46
GET,/fiber_ms/v2/search/suggestions?query=Animals - Nervous System&user_goal=CBSE&user_exam=10th CBSE&locale=en&goal=&exam=,39,0,23,23.82051282051282,17,54,369.0,0.6309524463870176,0.0,23,23,24,24,28,34,54,54,54,54,54
GET,/fiber_ms/v2/search/suggestions?query=Area of a Triangle&user_goal=CBSE&user_exam=10th CBSE&locale=en&goal=&exam=,14,0,23,24.142857142857142,17,37,2100.0,0.22649574998508323,0.0,23,28,28,30,31,37,37,37,37,37,37
GET,/fiber_ms/v2/search/suggestions?query=Areas of Combination of Plane Figures&user_goal=CBSE&user_exam=10th CBSE&locale=en&goal=&exam=,16,0,23,24.8125,18,53,2.0,0.258852285697238,0.0,23,23,25,25,27,53,53,53,53,53,53
GET,/fiber_ms/v2/search/suggestions?query=Areas of Similar Triangles&user_goal=CBSE&user_exam=10th CBSE&locale=en&goal=&exam=,18,0,24,25.055555555555557,19,31,172.0,0.29120882140939275,0.0,24,28,28,28,30,31,31,31,31,31,31
GET,/fiber_ms/v2/search/suggestions?query=Arithmetic Progressions&user_goal=CBSE&user_exam=10th CBSE&locale=en&goal=&exam=,31,0,23,25.129032258064516,17,47,1037.0,0.5015263035383987,0.0,23,27,27,27,31,35,47,47,47,47,47
GET,/fiber_ms/v2/search/suggestions?query=Atmospheric Refraction&user_goal=CBSE&user_exam=10th CBSE&locale=en&goal=&exam=,26,0,23,25.03846153846154,21,62,187.0,0.4206349642580117,0.0,23,24,25,25,27,30,62,62,62,62,62
GET,/fiber_ms/v2/search/suggestions?query=Bonding in Carbon - The Covalent Bond&user_goal=CBSE&user_exam=10th CBSE&locale=en&goal=&exam=,14,0,22,22.5,19,29,231.0,0.22649574998508323,0.0,22,23,23,23,24,29,29,29,29,29,29
GET,/fiber_ms/v2/search/suggestions?query=Bonding in Carbon-the Covalent Bond&user_goal=CBSE&user_exam=10th CBSE&locale=en&goal=&exam=,8,0,22,23.5,18,29,231.0,0.129426142848619,0.0,23,24,28,28,29,29,29,29,29,29,29
GET,/fiber_ms/v2/search/suggestions?query=Chemical Equations&user_goal=CBSE&user_exam=10th CBSE&locale=en&goal=&exam=,26,0,23,24.423076923076923,18,34,1977.0,0.4206349642580117,0.0,23,26,27,27,30,31,34,34,34,34,34
GET,/fiber_ms/v2/search/suggestions?query=Chemical Properties of Carbon Compounds&user_goal=CBSE&user_exam=10th CBSE&locale=en&goal=&exam=,27,0,23,25.22222222222222,21,52,464.0,0.4368132321140891,0.0,23,25,27,27,33,34,52,52,52,52,52
GET,/fiber_ms/v2/search/suggestions?query=Chemical Properties of Metals&user_goal=CBSE&user_exam=10th CBSE&locale=en&goal=&exam=,34,0,23,24.029411764705884,21,33,1039.0,0.5500611071066307,0.0,23,24,25,26,29,31,33,33,33,33,33
GET,/fiber_ms/v2/search/suggestions?query=Circuit Diagram&user_goal=CBSE&user_exam=10th CBSE&locale=en&goal=&exam=,35,0,23,24.02857142857143,18,36,2165.0,0.5662393749627082,0.0,23,24,25,28,29,34,36,36,36,36,36
GET,/fiber_ms/v2/search/suggestions?query=Coal and Petroleum&user_goal=CBSE&user_exam=10th CBSE&locale=en&goal=&exam=,15,0,22,23.8,19,33,1500.0,0.24267401784116063,0.0,22,23,24,30,31,33,33,33,33,33,33
GET,/fiber_ms/v2/search/suggestions?query=Construction of Tangents to a Circle&user_goal=CBSE&user_exam=10th CBSE&locale=en&goal=&exam=,26,0,23,24.076923076923077,17,34,713.0,0.4206349642580117,0.0,23,24,25,26,28,28,34,34,34,34,34
GET,/fiber_ms/v2/search/suggestions?query=Conventional Sources of Energy&user_goal=CBSE&user_exam=10th CBSE&locale=en&goal=&exam=,35,0,24,25.542857142857144,18,41,610.0,0.5662393749627082,0.0,24,27,28,28,30,36,41,41,41,41,41
GET,/fiber_ms/v2/search/suggestions?query=Conversion of Solid from One Shape to Another&user_goal=CBSE&user_exam=10th CBSE&locale=en&goal=&exam=,20,0,23,24.35,17,39,226.0,0.3235653571215475,0.0,24,24,27,27,27,39,39,39,39,39,39
GET,/fiber_ms/v2/search/suggestions?query=Coordination in Plants&user_goal=CBSE&user_exam=10th CBSE&locale=en&goal=&exam=,33,0,23,25.303030303030305,21,47,602.0,0.5338828392505534,0.0,23,24,27,28,30,37,47,47,47,47,47
GET,/fiber_ms/v2/search/suggestions?query=Corrosion&user_goal=CBSE&user_exam=10th CBSE&locale=en&goal=&exam=,40,0,23,24.325,18,35,1783.0,0.647130714243095,0.0,23,24,25,28,30,34,35,35,35,35,35
GET,/fiber_ms/v2/search/suggestions?query=Criteria for Similarity of Triangles&user_goal=CBSE&user_exam=10th CBSE&locale=en&goal=&exam=,15,0,24,25.533333333333335,19,39,192.0,0.24267401784116063,0.0,24,26,28,28,31,39,39,39,39,39,39
GET,/fiber_ms/v2/search/suggestions?query=Defects of Vision and their Correction&user_goal=CBSE&user_exam=10th CBSE&locale=en&goal=&exam=,32,0,23,26.0625,21,51,406.0,0.517704571394476,0.0,23,24,27,28,36,41,51,51,51,51,51
GET,/fiber_ms/v2/search/suggestions?query=Dispersion of White Light by a Glass Prism&user_goal=CBSE&user_exam=10th CBSE&locale=en&goal=&exam=,12,0,22,25.583333333333332,17,47,248.0,0.1941392142729285,0.0,24,25,28,28,28,47,47,47,47,47,47
GET,/fiber_ms/v2/search/suggestions?query=Distance Formula&user_goal=CBSE&user_exam=10th CBSE&locale=en&goal=&exam=,10,0,24,25.8,22,30,2168.0,0.16178267856077375,0.0,28,28,28,29,30,30,30,30,30,30,30
GET,/fiber_ms/v2/search/suggestions?query=Division Algorithm for Polynomials&user_goal=CBSE&user_exam=10th CBSE&locale=en&goal=&exam=,29,0,24,25.96551724137931,21,55,189.0,0.46916976782624387,0.0,24,25,28,29,33,34,55,55,55,55,55
GET,/fiber_ms/v2/search/suggestions?query=Division of a Line Segment&user_goal=CBSE&user_exam=10th CBSE&locale=en&goal=&exam=,29,0,24,26.620689655172413,20,51,1286.0,0.46916976782624387,0.0,24,25,26,28,49,51,51,51,51,51,51
GET,/fiber_ms/v2/search/suggestions?query=Do Organisms Create Exact Copies of Themselves?&user_goal=CBSE&user_exam=10th CBSE&locale=en&goal=&exam=,14,0,25,26.214285714285715,17,39,233.0,0.22649574998508323,0.0,27,28,28,29,37,39,39,39,39,39,39
GET,/fiber_ms/v2/search/suggestions?query=Domestic Electric Circuits&user_goal=CBSE&user_exam=10th CBSE&locale=en&goal=&exam=,23,0,24,24.869565217391305,21,37,684.0,0.37210016068977964,0.0,24,25,27,28,28,30,37,37,37,37,37
GET,/fiber_ms/v2/search/suggestions?query=Eco-system - What Are Its Components?&user_goal=CBSE&user_exam=10th CBSE&locale=en&goal=&exam=,28,0,26,29.178571428571427,18,61,2.0,0.45299149997016647,0.0,27,29,31,34,44,56,61,61,61,61,61
GET,/fiber_ms/v2/search/suggestions?query=Electric Current and Circuit&user_goal=CBSE&user_exam=10th CBSE&locale=en&goal=&exam=,44,0,22,23.727272727272727,17,37,809.0,0.7118437856674045,0.0,23,24,26,28,30,31,37,37,37,37,37
GET,/fiber_ms/v2/search/suggestions?query=Electric Generator&user_goal=CBSE&user_exam=10th CBSE&locale=en&goal=&exam=,31,0,23,24.258064516129032,18,38,876.0,0.5015263035383987,0.0,23,24,28,28,28,33,38,38,38,38,38
GET,/fiber_ms/v2/search/suggestions?query=Electric Motor&user_goal=CBSE&user_exam=10th CBSE&locale=en&goal=&exam=,44,0,23,25.454545454545453,17,68,1905.0,0.7118437856674045,0.0,23,24,27,27,34,38,68,68,68,68,68
GET,/fiber_ms/v2/search/suggestions?query=Electric Potential and Potential Difference&user_goal=CBSE&user_exam=10th CBSE&locale=en&goal=&exam=,23,0,23,23.652173913043477,17,30,703.0,0.37210016068977964,0.0,23,25,27,27,28,29,30,30,30,30,30
GET,/fiber_ms/v2/search/suggestions?query=Electric Power&user_goal=CBSE&user_exam=10th CBSE&locale=en&goal=&exam=,27,0,24,24.703703703703702,18,33,1762.0,0.4368132321140891,0.0,24,25,28,28,29,31,33,33,33,33,33
GET,/fiber_ms/v2/search/suggestions?query=Electromagnetic Induction&user_goal=CBSE&user_exam=10th CBSE&locale=en&goal=&exam=,50,0,24,26.2,19,55,2201.0,0.8089133928038688,0.0,24,27,28,29,33,36,55,55,55,55,55
GET,/fiber_ms/v2/search/suggestions?query=Environmental Consequences&user_goal=CBSE&user_exam=10th CBSE&locale=en&goal=&exam=,33,0,23,24.484848484848484,17,49,386.0,0.5338828392505534,0.0,23,24,25,27,29,36,49,49,49,49,49
GET,/fiber_ms/v2/search/suggestions?query=Equations Reducible to a Pair of Linear Equations in Two Variables&user_goal=CBSE&user_exam=10th CBSE&locale=en&goal=&exam=,14,0,22,22.642857142857142,18,35,283.0,0.22649574998508323,0.0,22,23,23,24,27,35,35,35,35,35,35
GET,/fiber_ms/v2/search/suggestions?query=Euclid's Division Lemma&user_goal=CBSE&user_exam=10th CBSE&locale=en&goal=&exam=,20,0,22,22.85,19,28,171.0,0.3235653571215475,0.0,23,23,24,24,25,28,28,28,28,28,28
GET,/fiber_ms/v2/search/suggestions?query=Euclid’s Division Lemma&user_goal=CBSE&user_exam=10th CBSE&locale=en&goal=&exam=,17,0,23,23.352941176470587,19,29,175.0,0.27503055355331535,0.0,23,24,24,25,28,29,29,29,29,29,29
GET,/fiber_ms/v2/search/suggestions?query=Evolution Should Not Be Equated With 'progress'&user_goal=CBSE&user_exam=10th CBSE&locale=en&goal=&exam=,15,0,23,26.333333333333332,21,52,2.0,0.24267401784116063,0.0,23,25,29,29,33,52,52,52,52,52,52
GET,/fiber_ms/v2/search/suggestions?query=Evolution and Classification&user_goal=CBSE&user_exam=10th CBSE&locale=en&goal=&exam=,22,0,23,24.40909090909091,20,42,385.0,0.35592189283370224,0.0,24,24,25,25,28,29,42,42,42,42,42
GET,/fiber_ms/v2/search/suggestions?query=Evolution&user_goal=CBSE&user_exam=10th CBSE&locale=en&goal=&exam=,37,0,24,26.675675675675677,18,71,1897.0,0.5985959106748628,0.0,24,27,27,28,32,58,71,71,71,71,71
GET,/fiber_ms/v2/search/suggestions?query=Excretion&user_goal=CBSE&user_exam=10th CBSE&locale=en&goal=&exam=,38,0,24,25.736842105263158,21,37,1781.0,0.6147741785309402,0.0,24,27,28,29,33,34,37,37,37,37,37
GET,/fiber_ms/v2/search/suggestions?query=Factors on Which the Resistance of a Conductor Depends&user_goal=CBSE&user_exam=10th CBSE&locale=en&goal=&exam=,31,0,24,28.29032258064516,21,97,225.0,0.5015263035383987,0.0,24,26,27,30,37,40,97,97,97,97,97
GET,/fiber_ms/v2/search/suggestions?query=Factors on which the Resistance of a Conductor Depends&user_goal=CBSE&user_exam=10th CBSE&locale=en&goal=&exam=,15,0,24,27.666666666666668,21,66,225.0,0.24267401784116063,0.0,24,24,28,32,35,66,66,66,66,66,66
GET,/fiber_ms/v2/search/suggestions?query=Force on a Current-Carrying Conductor in a Magnetic Field&user_goal=CBSE&user_exam=10th CBSE&locale=en&goal=&exam=,47,0,24,26.127659574468087,17,50,2284.0,0.7603785892356366,0.0,24,27,29,29,33,37,50,50,50,50,50
GET,/fiber_ms/v2/search/suggestions?query=Forests and Wildlife&user_goal=CBSE&user_exam=10th CBSE&locale=en&goal=&exam=,30,0,24,25.3,22,34,2532.0,0.48534803568232127,0.0,24,27,28,28,29,29,34,34,34,34,34
GET,/fiber_ms/v2/search/suggestions?query=Frustum of a Cone&user_goal=CBSE&user_exam=10th CBSE&locale=en&goal=&exam=,10,0,23,23.3,21,28,925.0,0.16178267856077375,0.0,24,24,24,24,28,28,28,28,28,28,28
GET,/fiber_ms/v2/search/suggestions?query=Geometrical Meaning of the Zeroes of a Polynomial&user_goal=CBSE&user_exam=10th CBSE&locale=en&goal=&exam=,14,0,23,24.357142857142858,18,45,235.0,0.22649574998508323,0.0,23,24,24,26,27,45,45,45,45,45,45
GET,/fiber_ms/v2/search/suggestions?query=Graphical Method of Solution of a Pair of Linear Equations&user_goal=CBSE&user_exam=10th CBSE&locale=en&goal=&exam=,27,0,23,23.88888888888889,19,34,267.0,0.4368132321140891,0.0,23,24,24,26,29,29,34,34,34,34,34
GET,/fiber_ms/v2/search/suggestions?query=Graphical Representation of Cumulative Frequency Distribution&user_goal=CBSE&user_exam=10th CBSE&locale=en&goal=&exam=,11,0,23,24.636363636363637,18,36,453.0,0.17796094641685112,0.0,23,24,25,25,35,36,36,36,36,36,36
GET,/fiber_ms/v2/search/suggestions?query=Have You Observed the Effects of Oxidation Reactions in Everyday Life?&user_goal=CBSE&user_exam=10th CBSE&locale=en&goal=&exam=,16,0,23,24.3125,18,34,2.0,0.258852285697238,0.0,23,25,26,26,29,34,34,34,34,34,34
GET,/fiber_ms/v2/search/suggestions?query=Heating Effect of Electric Current&user_goal=CBSE&user_exam=10th CBSE&locale=en&goal=&exam=,43,0,24,25.302325581395348,17,52,472.0,0.6956655178113271,0.0,24,26,27,27,30,38,52,52,52,52,52
GET,/fiber_ms/v2/search/suggestions?query=Heights and Distances&user_goal=CBSE&user_exam=10th CBSE&locale=en&goal=&exam=,26,0,24,24.615384615384617,16,42,190.0,0.4206349642580117,0.0,24,26,27,28,29,39,42,42,42,42,42
GET,/fiber_ms/v2/search/suggestions?query=Heredity&user_goal=CBSE&user_exam=10th CBSE&locale=en&goal=&exam=,47,0,23,23.72340425531915,16,42,2079.0,0.7603785892356366,0.0,23,23,25,26,28,31,42,42,42,42,42
GET,/fiber_ms/v2/search/suggestions?query=Hormones in Animals&user_goal=CBSE&user_exam=10th CBSE&locale=en&goal=&exam=,27,0,23,24.703703703703702,19,34,168.0,0.4368132321140891,0.0,23,25,27,28,31,32,34,34,34,34,34
GET,/fiber_ms/v2/search/suggestions?query=How Do Metals and Non-Metals React?&user_goal=CBSE&user_exam=10th CBSE&locale=en&goal=&exam=,17,0,23,26.0,21,53,2.0,0.27503055355331535,0.0,23,25,25,30,32,53,53,53,53,53,53
GET,/fiber_ms/v2/search/suggestions?query=How Do Our Activities Affect the Environment&user_goal=CBSE&user_exam=10th CBSE&locale=en&goal=&exam=,16,0,23,25.4375,17,39,2.0,0.258852285697238,0.0,23,25,30,30,35,39,39,39,39,39,39
GET,/fiber_ms/v2/search/suggestions?query=How Do Our Activities Affect the Environment?&user_goal=CBSE&user_exam=10th CBSE&locale=en&goal=&exam=,11,0,23,26.363636363636363,17,47,2.0,0.17796094641685112,0.0,23,27,30,30,35,47,47,47,47,47,47
GET,/fiber_ms/v2/search/suggestions?query=How Long Will an Energy Source Last Us?&user_goal=CBSE&user_exam=10th CBSE&locale=en&goal=&exam=,14,0,23,24.142857142857142,19,30,203.0,0.22649574998508323,0.0,24,26,27,29,29,30,30,30,30,30,30
GET,/fiber_ms/v2/search/suggestions?query=How Strong Are Acid or Base Solutions?&user_goal=CBSE&user_exam=10th CBSE&locale=en&goal=&exam=,12,0,27,28.916666666666668,17,57,2.0,0.1941392142729285,0.0,28,29,30,30,35,57,57,57,57,57,57
GET,/fiber_ms/v2/search/suggestions?query=How Strong are Acid or Base Solutions?&user_goal=CBSE&user_exam=10th CBSE&locale=en&goal=&exam=,17,0,24,26.470588235294116,22,52,2.0,0.27503055355331535,0.0,24,27,27,28,32,52,52,52,52,52,52
GET,/fiber_ms/v2/search/suggestions?query=Introduction&user_goal=CBSE&user_exam=10th CBSE&locale=en&goal=&exam=,52,0,23,24.884615384615383,17,72,1838.0,0.8412699285160234,0.0,23,24,24,26,28,33,54,72,72,72,72
GET,/fiber_ms/v2/search/suggestions?query=Magnetic Field Due to a Current-Carrying Conductor&user_goal=CBSE&user_exam=10th CBSE&locale=en&goal=&exam=,44,0,23,26.068181818181817,18,62,473.0,0.7118437856674045,0.0,24,26,27,29,34,37,62,62,62,62,62
GET,/fiber_ms/v2/search/suggestions?query=Magnetic Field and Field Lines&user_goal=CBSE&user_exam=10th CBSE&locale=en&goal=&exam=,18,0,23,24.0,18,30,1385.0,0.29120882140939275,0.0,24,24,25,26,29,30,30,30,30,30,30
GET,/fiber_ms/v2/search/suggestions?query=Magnetic Field due to a Current-Carrying Conductor&user_goal=CBSE&user_exam=10th CBSE&locale=en&goal=&exam=,13,0,23,23.153846153846153,18,27,473.0,0.21031748212900586,0.0,23,24,24,25,27,27,27,27,27,27,27
GET,/fiber_ms/v2/search/suggestions?query=Making Order Out of Chaos - Early Attempts at the Classification of Elements&user_goal=CBSE&user_exam=10th CBSE&locale=en&goal=&exam=,27,0,24,26.37037037037037,18,46,2.0,0.4368132321140891,0.0,24,27,28,29,37,38,46,46,46,46,46
GET,/fiber_ms/v2/search/suggestions?query=Making Order Out of Chaos - Mendeleev's Periodic Table&user_goal=CBSE&user_exam=10th CBSE&locale=en&goal=&exam=,23,0,24,26.47826086956522,21,55,2.0,0.37210016068977964,0.0,24,26,28,28,34,34,55,55,55,55,55
GET,/fiber_ms/v2/search/suggestions?query=Making Order Out of Chaos - the Modern Periodic Table&user_goal=CBSE&user_exam=10th CBSE&locale=en&goal=&exam=,32,0,23,24.9375,18,51,2.0,0.517704571394476,0.0,23,26,27,28,29,40,51,51,51,51,51
GET,/fiber_ms/v2/search/suggestions?query=Making Order out of Chaos - Early Attempts at the Classification of Elements&user_goal=CBSE&user_exam=10th CBSE&locale=en&goal=&exam=,10,0,23,22.8,21,24,2.0,0.16178267856077375,0.0,23,23,23,24,24,24,24,24,24,24,24
GET,/fiber_ms/v2/search/suggestions?query=Making Order out of Chaos - Mendeleev's Periodic Table&user_goal=CBSE&user_exam=10th CBSE&locale=en&goal=&exam=,19,0,23,23.842105263157894,18,33,2.0,0.3073870892654701,0.0,23,24,25,27,29,33,33,33,33,33,33
GET,/fiber_ms/v2/search/suggestions?query=Making Order out of Chaos - The Modern Periodic Table&user_goal=CBSE&user_exam=10th CBSE&locale=en&goal=&exam=,16,0,22,22.5625,17,28,2.0,0.258852285697238,0.0,23,23,24,24,26,28,28,28,28,28,28
GET,/fiber_ms/v2/search/suggestions?query=Mean of Grouped Data&user_goal=CBSE&user_exam=10th CBSE&locale=en&goal=&exam=,24,0,23,24.416666666666668,18,42,1128.0,0.388278428545857,0.0,23,24,27,28,29,29,42,42,42,42,42
GET,/fiber_ms/v2/search/suggestions?query=Median of Grouped Data&user_goal=CBSE&user_exam=10th CBSE&locale=en&goal=&exam=,32,0,26,27.09375,18,59,373.0,0.517704571394476,0.0,27,28,29,29,33,35,59,59,59,59,59
GET,/fiber_ms/v2/search/suggestions?query=Mode of Grouped Data&user_goal=CBSE&user_exam=10th CBSE&locale=en&goal=&exam=,24,0,23,25.041666666666668,18,56,179.0,0.388278428545857,0.0,24,24,24,25,27,40,56,56,56,56,56
GET,/fiber_ms/v2/search/suggestions?query=Modes of Reproduction Used by Single Organisms&user_goal=CBSE&user_exam=10th CBSE&locale=en&goal=&exam=,49,0,23,26.020408163265305,17,88,233.0,0.7927351249477913,0.0,23,26,28,30,32,34,88,88,88,88,88
GET,/fiber_ms/v2/search/suggestions?query=More About Salts&user_goal=CBSE&user_exam=10th CBSE&locale=en&goal=&exam=,27,0,24,24.48148148148148,17,32,2.0,0.4368132321140891,0.0,24,25,28,28,29,30,32,32,32,32,32
GET,/fiber_ms/v2/search/suggestions?query=Nature of Roots&user_goal=CBSE&user_exam=10th CBSE&locale=en&goal=&exam=,39,0,23,24.28205128205128,16,39,907.0,0.6309524463870176,0.0,23,24,28,28,30,33,39,39,39,39,39
GET,/fiber_ms/v2/search/suggestions?query=Number of Tangents from a Point on a Circle&user_goal=CBSE&user_exam=10th CBSE&locale=en&goal=&exam=,12,0,23,24.666666666666668,22,30,204.0,0.1941392142729285,0.0,23,24,27,27,29,30,30,30,30,30,30
GET,/fiber_ms/v2/search/suggestions?query=Nutrition&user_goal=CBSE&user_exam=10th CBSE&locale=en&goal=&exam=,42,0,23,24.547619047619047,19,58,1612.0,0.6794872499552498,0.0,23,24,25,26,28,29,58,58,58,58,58
GET,/fiber_ms/v2/search/suggestions?query=Occurence of Metals&user_goal=CBSE&user_exam=10th CBSE&locale=en&goal=&exam=,12,0,23,25.5,21,52,168.0,0.1941392142729285,0.0,23,24,24,24,27,52,52,52,52,52,52
GET,/fiber_ms/v2/search/suggestions?query=Occurrence of Metals&user_goal=CBSE&user_exam=10th CBSE&locale=en&goal=&exam=,17,0,23,25.058823529411764,21,37,1040.0,0.27503055355331535,0.0,23,26,27,27,37,37,37,37,37,37,37
GET,/fiber_ms/v2/search/suggestions?query=Ohm's Law&user_goal=CBSE&user_exam=10th CBSE&locale=en&goal=&exam=,48,0,23,25.020833333333332,17,44,1554.0,0.776556857091714,0.0,23,25,28,28,32,38,44,44,44,44,44
GET,/fiber_ms/v2/search/suggestions?query=Pair of Linear Equations in Two Variables&user_goal=CBSE&user_exam=10th CBSE&locale=en&goal=&exam=,24,0,23,25.958333333333332,19,48,2251.0,0.388278428545857,0.0,24,27,29,29,33,35,48,48,48,48,48
GET,/fiber_ms/v2/search/suggestions?query=Perimeter and Area of a Circle - A Review&user_goal=CBSE&user_exam=10th CBSE&locale=en&goal=&exam=,12,0,26,29.333333333333332,19,49,2.0,0.1941392142729285,0.0,29,29,35,35,46,49,49,49,49,49,49
GET,/fiber_ms/v2/search/suggestions?query=Physical Properties&user_goal=CBSE&user_exam=10th CBSE&locale=en&goal=&exam=,26,0,24,25.26923076923077,17,35,1919.0,0.4206349642580117,0.0,24,27,28,28,33,34,35,35,35,35,35
GET,/fiber_ms/v2/search/suggestions?query=Probability - A Theoretical Approach&user_goal=CBSE&user_exam=10th CBSE&locale=en&goal=&exam=,16,0,23,25.9375,17,48,432.0,0.258852285697238,0.0,23,23,30,30,37,48,48,48,48,48,48
GET,/fiber_ms/v2/search/suggestions?query=Pythagoras Theorem&user_goal=CBSE&user_exam=10th CBSE&locale=en&goal=&exam=,3,0,24,24.0,23,25,1943.0,0.04853480356823212,0.0,24,24,25,25,25,25,25,25,25,25,25
GET,/fiber_ms/v2/search/suggestions?query=Quadratic Equations&user_goal=CBSE&user_exam=10th CBSE&locale=en&goal=&exam=,44,0,23,24.204545454545453,18,34,1959.0,0.7118437856674045,0.0,23,25,27,27,28,28,34,34,34,34,34
GET,/fiber_ms/v2/search/suggestions?query=Reflection of Light&user_goal=CBSE&user_exam=10th CBSE&locale=en&goal=&exam=,30,0,23,25.8,18,57,1794.0,0.48534803568232127,0.0,24,25,27,27,33,39,57,57,57,57,57
GET,/fiber_ms/v2/search/suggestions?query=Refraction of Light through a Prism&user_goal=CBSE&user_exam=10th CBSE&locale=en&goal=&exam=,34,0,24,25.647058823529413,18,56,702.0,0.5500611071066307,0.0,24,25,27,27,29,47,56,56,56,56,56
GET,/fiber_ms/v2/search/suggestions?query=Refraction of Light&user_goal=CBSE&user_exam=10th CBSE&locale=en&goal=&exam=,31,0,24,24.29032258064516,21,29,2083.0,0.5015263035383987,0.0,24,24,26,27,28,29,29,29,29,29,29
GET,/fiber_ms/v2/search/suggestions?query=Relationship Between Zeroes and Coefficients of a Polynomial&user_goal=CBSE&user_exam=10th CBSE&locale=en&goal=&exam=,27,0,24,24.11111111111111,18,28,257.0,0.4368132321140891,0.0,24,26,27,27,28,28,28,28,28,28,28
GET,/fiber_ms/v2/search/suggestions?query=Resistance of a System of Resistors&user_goal=CBSE&user_exam=10th CBSE&locale=en&goal=&exam=,54,0,23,25.22222222222222,17,50,187.0,0.8736264642281782,0.0,23,25,27,28,29,35,49,50,50,50,50
GET,/fiber_ms/v2/search/suggestions?query=Respiration&user_goal=CBSE&user_exam=10th CBSE&locale=en&goal=&exam=,26,0,22,23.846153846153847,19,36,1808.0,0.4206349642580117,0.0,23,24,24,25,29,30,36,36,36,36,36
GET,/fiber_ms/v2/search/suggestions?query=Revisiting Irrational Numbers&user_goal=CBSE&user_exam=10th CBSE&locale=en&goal=&exam=,31,0,23,24.677419354838708,17,39,2.0,0.5015263035383987,0.0,23,24,27,28,29,34,39,39,39,39,39
GET,/fiber_ms/v2/search/suggestions?query=Revisiting Rational Numbers and Their Decimal Expansions&user_goal=CBSE&user_exam=10th CBSE&locale=en&goal=&exam=,24,0,22,24.083333333333332,17,51,2.0,0.388278428545857,0.0,22,23,23,24,29,41,51,51,51,51,51
GET,/fiber_ms/v2/search/suggestions?query=Scattering of Light&user_goal=CBSE&user_exam=10th CBSE&locale=en&goal=&exam=,29,0,23,25.655172413793103,18,79,1180.0,0.46916976782624387,0.0,23,25,26,27,30,30,79,79,79,79,79
GET,/fiber_ms/v2/search/suggestions?query=Section A&user_goal=CBSE&user_exam=10th CBSE&locale=en&goal=&exam=,100,0,23,25.27,17,57,2029.0,1.6178267856077375,0.0,23,24,27,28,33,36,56,57,57,57,57
GET,/fiber_ms/v2/search/suggestions?query=Section B&user_goal=CBSE&user_exam=10th CBSE&locale=en&goal=&exam=,90,0,23,34.17777777777778,17,832,886.0,1.4560441070469636,0.0,23,25,28,28,32,37,58,830,830,830,830
GET,/fiber_ms/v2/search/suggestions?query=Section C&user_goal=CBSE&user_exam=10th CBSE&locale=en&goal=&exam=,100,0,23,24.5,16,55,1896.0,1.6178267856077375,0.0,23,25,27,27,29,34,45,55,55,55,55
GET,/fiber_ms/v2/search/suggestions?query=Section Formula&user_goal=CBSE&user_exam=10th CBSE&locale=en&goal=&exam=,18,0,24,24.555555555555557,19,29,2126.0,0.29120882140939275,0.0,25,25,27,27,29,29,29,29,29,29,29
GET,/fiber_ms/v2/search/suggestions?query=Sexual Reproduction&user_goal=CBSE&user_exam=10th CBSE&locale=en&goal=&exam=,43,0,24,24.46511627906977,18,38,2017.0,0.6956655178113271,0.0,24,24,26,27,29,29,38,38,38,38,38
GET,/fiber_ms/v2/search/suggestions?query=Similar Figures&user_goal=CBSE&user_exam=10th CBSE&locale=en&goal=&exam=,11,0,24,25.09090909090909,18,38,539.0,0.17796094641685112,0.0,24,27,29,29,30,38,38,38,38,38,38
GET,/fiber_ms/v2/search/suggestions?query=Similarity of Triangles&user_goal=CBSE&user_exam=10th CBSE&locale=en&goal=&exam=,16,0,23,23.5625,18,28,1736.0,0.258852285697238,0.0,23,24,24,24,28,28,28,28,28,28,28
GET,/fiber_ms/v2/search/suggestions?query=Soaps and Detergents&user_goal=CBSE&user_exam=10th CBSE&locale=en&goal=&exam=,14,0,23,25.642857142857142,19,50,834.0,0.22649574998508323,0.0,23,23,28,28,33,50,50,50,50,50,50
GET,/fiber_ms/v2/search/suggestions?query=Solution of a Quadratic Equation by Completing the Square&user_goal=CBSE&user_exam=10th CBSE&locale=en&goal=&exam=,29,0,23,24.482758620689655,16,34,220.0,0.46916976782624387,0.0,23,26,27,29,32,33,34,34,34,34,34
GET,/fiber_ms/v2/search/suggestions?query=Solution of a Quadratic Equation by Factorisation&user_goal=CBSE&user_exam=10th CBSE&locale=en&goal=&exam=,37,0,23,24.324324324324323,17,45,212.0,0.5985959106748628,0.0,23,24,25,27,28,35,45,45,45,45,45
GET,/fiber_ms/v2/search/suggestions?query=Some Important Carbon Compounds - Ethanol and Ethanoic Acid&user_goal=CBSE&user_exam=10th CBSE&locale=en&goal=&exam=,35,0,23,24.857142857142858,21,38,2.0,0.5662393749627082,0.0,23,24,27,29,30,37,38,38,38,38,38
GET,/fiber_ms/v2/search/suggestions?query=Speciation&user_goal=CBSE&user_exam=10th CBSE&locale=en&goal=&exam=,38,0,23,24.55263157894737,17,43,1105.0,0.6147741785309402,0.0,23,25,28,28,30,35,43,43,43,43,43
GET,/fiber_ms/v2/search/suggestions?query=Spherical Mirrors&user_goal=CBSE&user_exam=10th CBSE&locale=en&goal=&exam=,27,0,24,25.25925925925926,17,61,1970.0,0.4368132321140891,0.0,24,24,26,28,29,32,61,61,61,61,61
GET,/fiber_ms/v2/search/suggestions?query=Sum of First n Terms of an AP&user_goal=CBSE&user_exam=10th CBSE&locale=en&goal=&exam=,46,0,24,25.41304347826087,19,48,421.0,0.7442003213795593,0.0,24,24,27,28,32,40,48,48,48,48,48
GET,/fiber_ms/v2/search/suggestions?query=Surface Area of a Combination of Solids&user_goal=CBSE&user_exam=10th CBSE&locale=en&goal=&exam=,39,0,24,25.743589743589745,17,49,214.0,0.6309524463870176,0.0,24,26,28,29,30,49,49,49,49,49,49
GET,/fiber_ms/v2/search/suggestions?query=Tangent to a Circle&user_goal=CBSE&user_exam=10th CBSE&locale=en&goal=&exam=,35,0,24,26.285714285714285,20,51,1947.0,0.5662393749627082,0.0,24,27,28,28,31,47,51,51,51,51,51
GET,/fiber_ms/v2/search/suggestions?query=The Fundamental Theorem of Arithmetic&user_goal=CBSE&user_exam=10th CBSE&locale=en&goal=&exam=,12,0,23,23.583333333333332,18,28,199.0,0.1941392142729285,0.0,24,24,25,25,28,28,28,28,28,28,28
GET,/fiber_ms/v2/search/suggestions?query=The Human Eye&user_goal=CBSE&user_exam=10th CBSE&locale=en&goal=&exam=,27,0,22,24.555555555555557,17,55,524.0,0.4368132321140891,0.0,22,23,24,28,29,37,55,55,55,55,55
GET,/fiber_ms/v2/search/suggestions?query=Transportation&user_goal=CBSE&user_exam=10th CBSE&locale=en&goal=&exam=,32,0,23,24.0,18,29,1829.0,0.517704571394476,0.0,24,25,27,27,28,29,29,29,29,29,29
GET,/fiber_ms/v2/search/suggestions?query=Trigonometric Identities&user_goal=CBSE&user_exam=10th CBSE&locale=en&goal=&exam=,15,0,24,24.0,18,33,2146.0,0.24267401784116063,0.0,24,24,25,26,26,33,33,33,33,33,33
GET,/fiber_ms/v2/search/suggestions?query=Trigonometric Ratios of Complementary Angles&user_goal=CBSE&user_exam=10th CBSE&locale=en&goal=&exam=,20,0,23,24.25,17,34,231.0,0.3235653571215475,0.0,23,24,24,27,32,34,34,34,34,34,34
GET,/fiber_ms/v2/search/suggestions?query=Trigonometric Ratios&user_goal=CBSE&user_exam=10th CBSE&locale=en&goal=&exam=,20,0,24,24.95,21,34,2056.0,0.3235653571215475,0.0,24,26,27,28,32,34,34,34,34,34,34
GET,/fiber_ms/v2/search/suggestions?query=Types of Chemical Reactions&user_goal=CBSE&user_exam=10th CBSE&locale=en&goal=&exam=,25,0,23,23.84,18,32,677.0,0.4044566964019344,0.0,23,24,24,28,29,31,32,32,32,32,32
GET,/fiber_ms/v2/search/suggestions?query=Understanding the Chemical Properties of Acids and Bases&user_goal=CBSE&user_exam=10th CBSE&locale=en&goal=&exam=,31,0,23,24.774193548387096,17,69,2.0,0.5015263035383987,0.0,23,24,25,25,28,28,69,69,69,69,69
GET,/fiber_ms/v2/search/suggestions?query=Versatile Nature of Carbon&user_goal=CBSE&user_exam=10th CBSE&locale=en&goal=&exam=,35,0,24,26.4,22,39,184.0,0.5662393749627082,0.0,24,28,29,29,33,36,39,39,39,39,39
GET,/fiber_ms/v2/search/suggestions?query=Volume of a Combination of Solids&user_goal=CBSE&user_exam=10th CBSE&locale=en&goal=&exam=,22,0,23,24.545454545454547,17,62,202.0,0.35592189283370224,0.0,23,24,24,24,28,35,62,62,62,62,62
GET,/fiber_ms/v2/search/suggestions?query=Water for All&user_goal=CBSE&user_exam=10th CBSE&locale=en&goal=&exam=,19,0,23,24.210526315789473,21,37,175.0,0.3073870892654701,0.0,23,24,25,25,29,37,37,37,37,37,37
GET,/fiber_ms/v2/search/suggestions?query=What Do All Acids and All Bases Have in Common?&user_goal=CBSE&user_exam=10th CBSE&locale=en&goal=&exam=,9,0,23,24.0,22,33,463.0,0.14560441070469637,0.0,23,23,23,24,33,33,33,33,33,33,33
GET,/fiber_ms/v2/search/suggestions?query=What Do All Acids and Bases Have in Common?&user_goal=CBSE&user_exam=10th CBSE&locale=en&goal=&exam=,17,0,24,25.705882352941178,21,37,463.0,0.27503055355331535,0.0,24,28,29,29,33,37,37,37,37,37,37
GET,/fiber_ms/v2/search/suggestions?query=What are Life Processes?&user_goal=CBSE&user_exam=10th CBSE&locale=en&goal=&exam=,13,0,23,23.923076923076923,19,34,2.0,0.21031748212900586,0.0,23,23,24,24,31,34,34,34,34,34,34
GET,/fiber_ms/v2/search/suggestions?query=What is a Good Source of Energy?&user_goal=CBSE&user_exam=10th CBSE&locale=en&goal=&exam=,36,0,23,24.27777777777778,17,49,2.0,0.5824176428187855,0.0,23,23,25,27,29,37,49,49,49,49,49
GET,/fiber_ms/v2/search/suggestions?query=Why do we Need to Manage Our Resources?&user_goal=CBSE&user_exam=10th CBSE&locale=en&goal=&exam=,19,0,23,25.05263157894737,19,52,2.0,0.3073870892654701,0.0,23,24,24,27,28,52,52,52,52,52,52
GET,/fiber_ms/v2/search/suggestions?query=nth Term of an AP&user_goal=CBSE&user_exam=10th CBSE&locale=en&goal=&exam=,52,0,24,25.26923076923077,18,35,397.0,0.8412699285160234,0.0,24,26,28,29,31,33,33,35,35,35,35
,Aggregated,3687,0,23,25.24654190398698,16,832,895.459723352319,59.64927358535728,0.0,23,25,27,28,30,34,46,52,79,830,830
