Type,Name,Request Count,Failure Count,Median Response Time,Average Response Time,Min Response Time,Max Response Time,Average Content Size,Requests/s,Failures/s,50%,66%,75%,80%,90%,95%,98%,99%,99.9%,99.99%,100%
GET,/de/hybridapi/v3/homework_class_question_wise_analysis?homeworkId=63846ff066125267cf3fe396&schoolId=62bc63afc672252aaf556025&classId=634954228db9004e80e00d9f,8209,49,320,730.6245584114996,62,60057,319.0839322694604,68.67534574178245,0.4099271459796979,320,410,480,540,700,870,1100,1300,60000,60000,60000
,Aggregated,8209,49,320,730.6245584114996,62,60057,319.0839322694604,68.67534574178245,0.4099271459796979,320,410,480,540,700,870,1100,1300,60000,60000,60000
