Timestamp,User Count,Type,Name,Requests/s,Failures/s,50%,66%,75%,80%,90%,95%,98%,99%,99.9%,99.99%,100%,Total Request Count,Total Failure Count,Total Median Response Time,Total Average Response Time,Total Min Response Time,Total Max Response Time,Total Average Content Size
1675445312,0,,Aggregated,0.000000,0.000000,N/A,N/A,N/A,N/A,N/A,N/A,N/A,N/A,N/A,N/A,N/A,0,0,0,0.0,0,0,0
1675445313,10,GET,/de/hybridapi/v2/strong_and_weak_topic_analysis_class_wise?homeworkId=63846ff066125267cf3fe396&schoolId=62bc63afc672252aaf556025&classId=634954228db9004e80e00d9f&subjectCode=kve500435,0.000000,0.000000,0,0,0,0,0,0,0,0,0,0,0,12,0,290,305.25,119,778,35.0
1675445313,10,,Aggregated,0.000000,0.000000,0,0,0,0,0,0,0,0,0,0,0,12,0,290,305.25,119,778,35.0
1675445314,20,GET,/de/hybridapi/v2/strong_and_weak_topic_analysis_class_wise?homeworkId=63846ff066125267cf3fe396&schoolId=62bc63afc672252aaf556025&classId=634954228db9004e80e00d9f&subjectCode=kve500435,0.000000,0.000000,140,170,170,180,450,780,780,780,780,780,780,30,0,170,239.56666666666666,112,778,35.0
1675445314,20,,Aggregated,0.000000,0.000000,140,170,170,180,450,780,780,780,780,780,780,30,0,170,239.56666666666666,112,778,35.0
1675445315,30,GET,/de/hybridapi/v2/strong_and_weak_topic_analysis_class_wise?homeworkId=63846ff066125267cf3fe396&schoolId=62bc63afc672252aaf556025&classId=634954228db9004e80e00d9f&subjectCode=kve500435,9.000000,0.000000,130,160,180,180,190,450,780,780,780,780,780,63,0,130,186.44444444444446,105,778,35.0
1675445315,30,,Aggregated,9.000000,0.000000,130,160,180,180,190,450,780,780,780,780,780,63,0,130,186.44444444444446,105,778,35.0
1675445316,40,GET,/de/hybridapi/v2/strong_and_weak_topic_analysis_class_wise?homeworkId=63846ff066125267cf3fe396&schoolId=62bc63afc672252aaf556025&classId=634954228db9004e80e00d9f&subjectCode=kve500435,11.500000,0.000000,120,140,180,180,200,200,780,780,780,780,780,109,0,120,164.55963302752295,105,778,35.0
1675445316,40,,Aggregated,11.500000,0.000000,120,140,180,180,200,200,780,780,780,780,780,109,0,120,164.55963302752295,105,778,35.0
1675445317,50,GET,/de/hybridapi/v2/strong_and_weak_topic_analysis_class_wise?homeworkId=63846ff066125267cf3fe396&schoolId=62bc63afc672252aaf556025&classId=634954228db9004e80e00d9f&subjectCode=kve500435,16.000000,0.000000,120,130,160,180,200,220,220,780,780,780,780,166,0,120,155.23493975903614,105,778,35.0
1675445317,50,,Aggregated,16.000000,0.000000,120,130,160,180,200,220,220,780,780,780,780,166,0,120,155.23493975903614,105,778,35.0
1675445318,60,GET,/de/hybridapi/v2/strong_and_weak_topic_analysis_class_wise?homeworkId=63846ff066125267cf3fe396&schoolId=62bc63afc672252aaf556025&classId=634954228db9004e80e00d9f&subjectCode=kve500435,22.000000,0.000000,120,130,150,180,200,220,240,610,780,780,780,240,0,120,150.8,102,778,35.0
1675445318,60,,Aggregated,22.000000,0.000000,120,130,150,180,200,220,240,610,780,780,780,240,0,120,150.8,102,778,35.0
1675445319,70,GET,/de/hybridapi/v2/strong_and_weak_topic_analysis_class_wise?homeworkId=63846ff066125267cf3fe396&schoolId=62bc63afc672252aaf556025&classId=634954228db9004e80e00d9f&subjectCode=kve500435,26.800000,0.000000,120,130,150,170,200,220,220,450,780,780,780,321,0,120,147.68847352024923,102,778,35.0
1675445319,70,,Aggregated,26.800000,0.000000,120,130,150,170,200,220,220,450,780,780,780,321,0,120,147.68847352024923,102,778,35.0
1675445320,80,GET,/de/hybridapi/v2/strong_and_weak_topic_analysis_class_wise?homeworkId=63846ff066125267cf3fe396&schoolId=62bc63afc672252aaf556025&classId=634954228db9004e80e00d9f&subjectCode=kve500435,34.000000,0.000000,120,140,150,180,200,220,260,450,780,780,780,423,0,120,149.27659574468086,102,778,35.0
1675445320,80,,Aggregated,34.000000,0.000000,120,140,150,180,200,220,260,450,780,780,780,423,0,120,149.27659574468086,102,778,35.0
1675445321,90,GET,/de/hybridapi/v2/strong_and_weak_topic_analysis_class_wise?homeworkId=63846ff066125267cf3fe396&schoolId=62bc63afc672252aaf556025&classId=634954228db9004e80e00d9f&subjectCode=kve500435,40.142857,0.000000,130,140,150,160,200,220,260,270,780,780,780,535,0,130,146.82242990654206,102,778,35.0
1675445321,90,,Aggregated,40.142857,0.000000,130,140,150,160,200,220,260,270,780,780,780,535,0,130,146.82242990654206,102,778,35.0
1675445322,100,GET,/de/hybridapi/v2/strong_and_weak_topic_analysis_class_wise?homeworkId=63846ff066125267cf3fe396&schoolId=62bc63afc672252aaf556025&classId=634954228db9004e80e00d9f&subjectCode=kve500435,45.500000,0.000000,130,140,150,170,200,220,260,300,780,780,780,656,0,130,148.97713414634146,102,778,35.0
1675445322,100,,Aggregated,45.500000,0.000000,130,140,150,170,200,220,260,300,780,780,780,656,0,130,148.97713414634146,102,778,35.0
1675445323,100,GET,/de/hybridapi/v2/strong_and_weak_topic_analysis_class_wise?homeworkId=63846ff066125267cf3fe396&schoolId=62bc63afc672252aaf556025&classId=634954228db9004e80e00d9f&subjectCode=kve500435,51.444444,0.000000,130,150,160,170,200,220,250,270,780,780,780,781,0,140,150.13316261203585,102,778,35.0
1675445323,100,,Aggregated,51.444444,0.000000,130,150,160,170,200,220,250,270,780,780,780,781,0,140,150.13316261203585,102,778,35.0
1675445324,100,GET,/de/hybridapi/v2/strong_and_weak_topic_analysis_class_wise?homeworkId=63846ff066125267cf3fe396&schoolId=62bc63afc672252aaf556025&classId=634954228db9004e80e00d9f&subjectCode=kve500435,57.900000,0.000000,140,150,160,170,200,220,240,260,610,610,610,911,0,140,150.5675082327113,102,778,35.0
1675445324,100,,Aggregated,57.900000,0.000000,140,150,160,170,200,220,240,260,610,610,610,911,0,140,150.5675082327113,102,778,35.0
1675445325,100,GET,/de/hybridapi/v2/strong_and_weak_topic_analysis_class_wise?homeworkId=63846ff066125267cf3fe396&schoolId=62bc63afc672252aaf556025&classId=634954228db9004e80e00d9f&subjectCode=kve500435,69.500000,0.000000,140,150,160,170,200,220,240,260,610,610,610,1023,0,140,150.27468230694038,102,778,35.0
1675445325,100,,Aggregated,69.500000,0.000000,140,150,160,170,200,220,240,260,610,610,610,1023,0,140,150.27468230694038,102,778,35.0
1675445326,100,GET,/de/hybridapi/v2/strong_and_weak_topic_analysis_class_wise?homeworkId=63846ff066125267cf3fe396&schoolId=62bc63afc672252aaf556025&classId=634954228db9004e80e00d9f&subjectCode=kve500435,80.500000,0.000000,140,150,160,170,200,220,260,270,550,610,610,1148,0,140,152.29703832752614,102,778,35.0
1675445326,100,,Aggregated,80.500000,0.000000,140,150,160,170,200,220,260,270,550,610,610,1148,0,140,152.29703832752614,102,778,35.0
1675445327,100,GET,/de/hybridapi/v2/strong_and_weak_topic_analysis_class_wise?homeworkId=63846ff066125267cf3fe396&schoolId=62bc63afc672252aaf556025&classId=634954228db9004e80e00d9f&subjectCode=kve500435,90.700000,0.000000,140,150,160,170,200,220,260,270,550,610,610,1269,0,140,152.7123719464145,102,778,35.0
1675445327,100,,Aggregated,90.700000,0.000000,140,150,160,170,200,220,260,270,550,610,610,1269,0,140,152.7123719464145,102,778,35.0
1675445328,100,GET,/de/hybridapi/v2/strong_and_weak_topic_analysis_class_wise?homeworkId=63846ff066125267cf3fe396&schoolId=62bc63afc672252aaf556025&classId=634954228db9004e80e00d9f&subjectCode=kve500435,98.800000,0.000000,140,160,170,180,200,220,260,270,500,550,550,1385,0,140,153.47003610108302,102,778,35.0
1675445328,100,,Aggregated,98.800000,0.000000,140,160,170,180,200,220,260,270,500,550,550,1385,0,140,153.47003610108302,102,778,35.0
1675445329,100,GET,/de/hybridapi/v2/strong_and_weak_topic_analysis_class_wise?homeworkId=63846ff066125267cf3fe396&schoolId=62bc63afc672252aaf556025&classId=634954228db9004e80e00d9f&subjectCode=kve500435,105.800000,0.000000,140,160,160,170,200,220,250,270,500,550,550,1508,0,140,152.63527851458886,102,778,35.0
1675445329,100,,Aggregated,105.800000,0.000000,140,160,160,170,200,220,250,270,500,550,550,1508,0,140,152.63527851458886,102,778,35.0
1675445330,100,GET,/de/hybridapi/v2/strong_and_weak_topic_analysis_class_wise?homeworkId=63846ff066125267cf3fe396&schoolId=62bc63afc672252aaf556025&classId=634954228db9004e80e00d9f&subjectCode=kve500435,110.400000,0.000000,150,160,170,170,200,220,250,280,380,550,550,1619,0,140,152.8888202594194,102,778,35.0
1675445330,100,,Aggregated,110.400000,0.000000,150,160,170,170,200,220,250,280,380,550,550,1619,0,140,152.8888202594194,102,778,35.0
1675445331,100,GET,/de/hybridapi/v2/strong_and_weak_topic_analysis_class_wise?homeworkId=63846ff066125267cf3fe396&schoolId=62bc63afc672252aaf556025&classId=634954228db9004e80e00d9f&subjectCode=kve500435,114.400000,0.000000,150,160,160,170,190,220,250,280,550,620,620,1735,0,140,152.31757925072046,102,778,35.0
1675445331,100,,Aggregated,114.400000,0.000000,150,160,160,170,190,220,250,280,550,620,620,1735,0,140,152.31757925072046,102,778,35.0
1675445332,100,GET,/de/hybridapi/v2/strong_and_weak_topic_analysis_class_wise?homeworkId=63846ff066125267cf3fe396&schoolId=62bc63afc672252aaf556025&classId=634954228db9004e80e00d9f&subjectCode=kve500435,118.300000,0.000000,140,160,170,170,190,220,250,280,380,620,620,1847,0,140,151.58635625338385,102,778,35.0
1675445332,100,,Aggregated,118.300000,0.000000,140,160,170,170,190,220,250,280,380,620,620,1847,0,140,151.58635625338385,102,778,35.0
1675445333,100,GET,/de/hybridapi/v2/strong_and_weak_topic_analysis_class_wise?homeworkId=63846ff066125267cf3fe396&schoolId=62bc63afc672252aaf556025&classId=634954228db9004e80e00d9f&subjectCode=kve500435,119.400000,0.000000,140,160,170,180,200,230,260,280,380,620,620,1963,0,140,152.08711156393275,102,778,35.0
1675445333,100,,Aggregated,119.400000,0.000000,140,160,170,180,200,230,260,280,380,620,620,1963,0,140,152.08711156393275,102,778,35.0
1675445334,100,GET,/de/hybridapi/v2/strong_and_weak_topic_analysis_class_wise?homeworkId=63846ff066125267cf3fe396&schoolId=62bc63afc672252aaf556025&classId=634954228db9004e80e00d9f&subjectCode=kve500435,118.700000,0.000000,140,150,160,170,200,230,260,270,380,620,620,2076,0,140,151.32032755298653,102,778,35.0
1675445334,100,,Aggregated,118.700000,0.000000,140,150,160,170,200,230,260,270,380,620,620,2076,0,140,151.32032755298653,102,778,35.0
1675445335,100,GET,/de/hybridapi/v2/strong_and_weak_topic_analysis_class_wise?homeworkId=63846ff066125267cf3fe396&schoolId=62bc63afc672252aaf556025&classId=634954228db9004e80e00d9f&subjectCode=kve500435,117.500000,0.000000,140,150,160,170,190,220,250,260,380,620,620,2188,0,140,150.55804387568557,102,778,35.0
1675445335,100,,Aggregated,117.500000,0.000000,140,150,160,170,190,220,250,260,380,620,620,2188,0,140,150.55804387568557,102,778,35.0
1675445336,100,GET,/de/hybridapi/v2/strong_and_weak_topic_analysis_class_wise?homeworkId=63846ff066125267cf3fe396&schoolId=62bc63afc672252aaf556025&classId=634954228db9004e80e00d9f&subjectCode=kve500435,116.500000,0.000000,140,150,160,160,190,220,250,260,380,620,620,2312,0,140,150.37889273356402,102,778,35.0
1675445336,100,,Aggregated,116.500000,0.000000,140,150,160,160,190,220,250,260,380,620,620,2312,0,140,150.37889273356402,102,778,35.0
1675445337,100,GET,/de/hybridapi/v2/strong_and_weak_topic_analysis_class_wise?homeworkId=63846ff066125267cf3fe396&schoolId=62bc63afc672252aaf556025&classId=634954228db9004e80e00d9f&subjectCode=kve500435,115.600000,0.000000,140,150,160,160,190,220,250,260,380,620,620,2431,0,140,150.34718222953518,102,778,35.0
1675445337,100,,Aggregated,115.600000,0.000000,140,150,160,160,190,220,250,260,380,620,620,2431,0,140,150.34718222953518,102,778,35.0
1675445338,100,GET,/de/hybridapi/v2/strong_and_weak_topic_analysis_class_wise?homeworkId=63846ff066125267cf3fe396&schoolId=62bc63afc672252aaf556025&classId=634954228db9004e80e00d9f&subjectCode=kve500435,115.600000,0.000000,140,150,160,160,180,200,240,260,380,620,620,2535,0,140,149.86193293885603,102,778,35.0
1675445338,100,,Aggregated,115.600000,0.000000,140,150,160,160,180,200,240,260,380,620,620,2535,0,140,149.86193293885603,102,778,35.0
1675445339,100,GET,/de/hybridapi/v2/strong_and_weak_topic_analysis_class_wise?homeworkId=63846ff066125267cf3fe396&schoolId=62bc63afc672252aaf556025&classId=634954228db9004e80e00d9f&subjectCode=kve500435,115.600000,0.000000,140,150,160,160,180,200,240,270,440,620,620,2649,0,140,149.7353718384296,102,778,35.0
1675445339,100,,Aggregated,115.600000,0.000000,140,150,160,160,180,200,240,270,440,620,620,2649,0,140,149.7353718384296,102,778,35.0
1675445340,100,GET,/de/hybridapi/v2/strong_and_weak_topic_analysis_class_wise?homeworkId=63846ff066125267cf3fe396&schoolId=62bc63afc672252aaf556025&classId=634954228db9004e80e00d9f&subjectCode=kve500435,115.300000,0.000000,140,150,150,160,180,190,240,260,440,620,620,2750,0,140,149.5189090909091,102,778,35.0
1675445340,100,,Aggregated,115.300000,0.000000,140,150,150,160,180,190,240,260,440,620,620,2750,0,140,149.5189090909091,102,778,35.0
1675445341,100,GET,/de/hybridapi/v2/strong_and_weak_topic_analysis_class_wise?homeworkId=63846ff066125267cf3fe396&schoolId=62bc63afc672252aaf556025&classId=634954228db9004e80e00d9f&subjectCode=kve500435,114.900000,0.000000,140,150,160,160,180,200,240,250,360,440,440,2864,0,140,149.31808659217876,102,778,35.0
1675445341,100,,Aggregated,114.900000,0.000000,140,150,160,160,180,200,240,250,360,440,440,2864,0,140,149.31808659217876,102,778,35.0
1675445342,100,GET,/de/hybridapi/v2/strong_and_weak_topic_analysis_class_wise?homeworkId=63846ff066125267cf3fe396&schoolId=62bc63afc672252aaf556025&classId=634954228db9004e80e00d9f&subjectCode=kve500435,113.400000,0.000000,140,150,160,160,180,190,240,260,440,580,580,2986,0,140,149.4326858673811,102,778,35.0
1675445342,100,,Aggregated,113.400000,0.000000,140,150,160,160,180,190,240,260,440,580,580,2986,0,140,149.4326858673811,102,778,35.0
1675445343,100,GET,/de/hybridapi/v2/strong_and_weak_topic_analysis_class_wise?homeworkId=63846ff066125267cf3fe396&schoolId=62bc63afc672252aaf556025&classId=634954228db9004e80e00d9f&subjectCode=kve500435,113.500000,0.000000,140,150,150,160,170,180,200,230,440,580,580,3099,0,140,148.80348499515972,102,778,35.0
1675445343,100,,Aggregated,113.500000,0.000000,140,150,150,160,170,180,200,230,440,580,580,3099,0,140,148.80348499515972,102,778,35.0
1675445344,100,GET,/de/hybridapi/v2/strong_and_weak_topic_analysis_class_wise?homeworkId=63846ff066125267cf3fe396&schoolId=62bc63afc672252aaf556025&classId=634954228db9004e80e00d9f&subjectCode=kve500435,113.900000,0.000000,140,150,150,160,170,180,200,230,440,580,580,3218,0,140,148.51491609695464,102,778,35.0
1675445344,100,,Aggregated,113.900000,0.000000,140,150,150,160,170,180,200,230,440,580,580,3218,0,140,148.51491609695464,102,778,35.0
1675445345,100,GET,/de/hybridapi/v2/strong_and_weak_topic_analysis_class_wise?homeworkId=63846ff066125267cf3fe396&schoolId=62bc63afc672252aaf556025&classId=634954228db9004e80e00d9f&subjectCode=kve500435,114.100000,0.000000,140,150,160,160,170,180,200,230,440,580,580,3329,0,140,148.07239411234605,102,778,35.0
1675445345,100,,Aggregated,114.100000,0.000000,140,150,160,160,170,180,200,230,440,580,580,3329,0,140,148.07239411234605,102,778,35.0
1675445346,100,GET,/de/hybridapi/v2/strong_and_weak_topic_analysis_class_wise?homeworkId=63846ff066125267cf3fe396&schoolId=62bc63afc672252aaf556025&classId=634954228db9004e80e00d9f&subjectCode=kve500435,113.800000,0.000000,140,150,150,160,170,180,190,210,440,580,580,3448,0,140,147.6363109048724,102,778,35.0
1675445346,100,,Aggregated,113.800000,0.000000,140,150,150,160,170,180,190,210,440,580,580,3448,0,140,147.6363109048724,102,778,35.0
1675445347,100,GET,/de/hybridapi/v2/strong_and_weak_topic_analysis_class_wise?homeworkId=63846ff066125267cf3fe396&schoolId=62bc63afc672252aaf556025&classId=634954228db9004e80e00d9f&subjectCode=kve500435,113.800000,0.000000,140,140,150,160,170,180,190,220,440,580,580,3556,0,140,147.2359392575928,102,778,35.0
1675445347,100,,Aggregated,113.800000,0.000000,140,140,150,160,170,180,190,220,440,580,580,3556,0,140,147.2359392575928,102,778,35.0
1675445348,100,GET,/de/hybridapi/v2/strong_and_weak_topic_analysis_class_wise?homeworkId=63846ff066125267cf3fe396&schoolId=62bc63afc672252aaf556025&classId=634954228db9004e80e00d9f&subjectCode=kve500435,112.900000,0.000000,140,140,150,160,170,180,190,230,530,580,580,3640,0,140,147.2153846153846,102,778,35.0
1675445348,100,,Aggregated,112.900000,0.000000,140,140,150,160,170,180,190,230,530,580,580,3640,0,140,147.2153846153846,102,778,35.0
1675445349,100,GET,/de/hybridapi/v2/strong_and_weak_topic_analysis_class_wise?homeworkId=63846ff066125267cf3fe396&schoolId=62bc63afc672252aaf556025&classId=634954228db9004e80e00d9f&subjectCode=kve500435,112.700000,0.000000,140,140,150,160,170,190,280,330,530,580,580,3762,0,140,148.06432748538012,102,778,35.0
1675445349,100,,Aggregated,112.700000,0.000000,140,140,150,160,170,190,280,330,530,580,580,3762,0,140,148.06432748538012,102,778,35.0
1675445350,100,GET,/de/hybridapi/v2/strong_and_weak_topic_analysis_class_wise?homeworkId=63846ff066125267cf3fe396&schoolId=62bc63afc672252aaf556025&classId=634954228db9004e80e00d9f&subjectCode=kve500435,111.900000,0.000000,130,140,150,160,170,190,300,350,580,590,590,3860,0,140,148.0616580310881,102,778,35.0
1675445350,100,,Aggregated,111.900000,0.000000,130,140,150,160,170,190,300,350,580,590,590,3860,0,140,148.0616580310881,102,778,35.0
1675445351,100,GET,/de/hybridapi/v2/strong_and_weak_topic_analysis_class_wise?homeworkId=63846ff066125267cf3fe396&schoolId=62bc63afc672252aaf556025&classId=634954228db9004e80e00d9f&subjectCode=kve500435,111.200000,0.000000,130,140,150,150,170,190,300,350,580,590,590,3982,0,140,147.66373681567052,102,778,35.0
1675445351,100,,Aggregated,111.200000,0.000000,130,140,150,150,170,190,300,350,580,590,590,3982,0,140,147.66373681567052,102,778,35.0
1675445352,100,GET,/de/hybridapi/v2/strong_and_weak_topic_analysis_class_wise?homeworkId=63846ff066125267cf3fe396&schoolId=62bc63afc672252aaf556025&classId=634954228db9004e80e00d9f&subjectCode=kve500435,111.400000,0.000000,130,140,150,150,160,190,290,340,530,590,590,4097,0,140,147.43714913351232,102,778,35.0
1675445352,100,,Aggregated,111.400000,0.000000,130,140,150,150,160,190,290,340,530,590,590,4097,0,140,147.43714913351232,102,778,35.0
1675445353,100,GET,/de/hybridapi/v2/strong_and_weak_topic_analysis_class_wise?homeworkId=63846ff066125267cf3fe396&schoolId=62bc63afc672252aaf556025&classId=634954228db9004e80e00d9f&subjectCode=kve500435,110.400000,0.000000,130,140,150,150,170,210,290,340,530,590,590,4202,0,140,147.43503093764875,102,778,35.0
1675445353,100,,Aggregated,110.400000,0.000000,130,140,150,150,170,210,290,340,530,590,590,4202,0,140,147.43503093764875,102,778,35.0
1675445354,100,GET,/de/hybridapi/v2/strong_and_weak_topic_analysis_class_wise?homeworkId=63846ff066125267cf3fe396&schoolId=62bc63afc672252aaf556025&classId=634954228db9004e80e00d9f&subjectCode=kve500435,110.500000,0.000000,130,140,150,150,170,210,290,350,530,590,590,4306,0,140,146.98722712494194,102,778,35.0
1675445354,100,,Aggregated,110.500000,0.000000,130,140,150,150,170,210,290,350,530,590,590,4306,0,140,146.98722712494194,102,778,35.0
1675445355,100,GET,/de/hybridapi/v2/strong_and_weak_topic_analysis_class_wise?homeworkId=63846ff066125267cf3fe396&schoolId=62bc63afc672252aaf556025&classId=634954228db9004e80e00d9f&subjectCode=kve500435,109.600000,0.000000,130,140,140,150,170,210,300,350,530,590,590,4410,0,140,146.64489795918368,102,778,35.0
1675445355,100,,Aggregated,109.600000,0.000000,130,140,140,150,170,210,300,350,530,590,590,4410,0,140,146.64489795918368,102,778,35.0
1675445356,100,GET,/de/hybridapi/v2/strong_and_weak_topic_analysis_class_wise?homeworkId=63846ff066125267cf3fe396&schoolId=62bc63afc672252aaf556025&classId=634954228db9004e80e00d9f&subjectCode=kve500435,109.700000,0.000000,130,140,150,150,170,210,300,350,530,590,590,4516,0,140,146.35651018600532,102,778,35.0
1675445356,100,,Aggregated,109.700000,0.000000,130,140,150,150,170,210,300,350,530,590,590,4516,0,140,146.35651018600532,102,778,35.0
1675445357,100,GET,/de/hybridapi/v2/strong_and_weak_topic_analysis_class_wise?homeworkId=63846ff066125267cf3fe396&schoolId=62bc63afc672252aaf556025&classId=634954228db9004e80e00d9f&subjectCode=kve500435,107.800000,0.000000,130,140,140,150,170,200,300,350,530,590,590,4624,0,140,145.9759948096886,102,778,35.0
1675445357,100,,Aggregated,107.800000,0.000000,130,140,140,150,170,200,300,350,530,590,590,4624,0,140,145.9759948096886,102,778,35.0
1675445358,100,GET,/de/hybridapi/v2/strong_and_weak_topic_analysis_class_wise?homeworkId=63846ff066125267cf3fe396&schoolId=62bc63afc672252aaf556025&classId=634954228db9004e80e00d9f&subjectCode=kve500435,107.400000,0.000000,130,140,140,150,150,170,210,260,490,590,590,4736,0,140,145.74007601351352,102,778,35.0
1675445358,100,,Aggregated,107.400000,0.000000,130,140,140,150,150,170,210,260,490,590,590,4736,0,140,145.74007601351352,102,778,35.0
1675445359,100,GET,/de/hybridapi/v2/strong_and_weak_topic_analysis_class_wise?homeworkId=63846ff066125267cf3fe396&schoolId=62bc63afc672252aaf556025&classId=634954228db9004e80e00d9f&subjectCode=kve500435,106.700000,0.000000,130,140,140,150,160,170,210,260,490,590,590,4835,0,140,145.44426059979318,102,778,35.0
1675445359,100,,Aggregated,106.700000,0.000000,130,140,140,150,160,170,210,260,490,590,590,4835,0,140,145.44426059979318,102,778,35.0
1675445360,100,GET,/de/hybridapi/v2/strong_and_weak_topic_analysis_class_wise?homeworkId=63846ff066125267cf3fe396&schoolId=62bc63afc672252aaf556025&classId=634954228db9004e80e00d9f&subjectCode=kve500435,107.100000,0.000000,130,140,140,150,160,190,260,280,350,400,400,4941,0,140,146.0107265735681,102,778,35.0
1675445360,100,,Aggregated,107.100000,0.000000,130,140,140,150,160,190,260,280,350,400,400,4941,0,140,146.0107265735681,102,778,35.0
1675445361,100,GET,/de/hybridapi/v2/strong_and_weak_topic_analysis_class_wise?homeworkId=63846ff066125267cf3fe396&schoolId=62bc63afc672252aaf556025&classId=634954228db9004e80e00d9f&subjectCode=kve500435,108.000000,0.000000,130,140,140,150,160,180,260,280,350,400,400,5043,0,140,145.61848106285942,102,778,35.0
1675445361,100,,Aggregated,108.000000,0.000000,130,140,140,150,160,180,260,280,350,400,400,5043,0,140,145.61848106285942,102,778,35.0
1675445362,100,GET,/de/hybridapi/v2/strong_and_weak_topic_analysis_class_wise?homeworkId=63846ff066125267cf3fe396&schoolId=62bc63afc672252aaf556025&classId=634954228db9004e80e00d9f&subjectCode=kve500435,105.900000,0.000000,130,140,140,150,160,190,260,280,350,400,400,5140,0,140,145.47431906614787,102,778,35.0
1675445362,100,,Aggregated,105.900000,0.000000,130,140,140,150,160,190,260,280,350,400,400,5140,0,140,145.47431906614787,102,778,35.0
1675445363,100,GET,/de/hybridapi/v2/strong_and_weak_topic_analysis_class_wise?homeworkId=63846ff066125267cf3fe396&schoolId=62bc63afc672252aaf556025&classId=634954228db9004e80e00d9f&subjectCode=kve500435,107.100000,0.000000,130,140,140,140,160,180,260,280,350,400,400,5243,0,140,145.18939538432195,102,778,35.0
1675445363,100,,Aggregated,107.100000,0.000000,130,140,140,140,160,180,260,280,350,400,400,5243,0,140,145.18939538432195,102,778,35.0
1675445364,100,GET,/de/hybridapi/v2/strong_and_weak_topic_analysis_class_wise?homeworkId=63846ff066125267cf3fe396&schoolId=62bc63afc672252aaf556025&classId=634954228db9004e80e00d9f&subjectCode=kve500435,105.900000,0.000000,130,140,140,150,160,190,260,280,330,400,400,5339,0,140,145.01929200224762,102,778,35.0
1675445364,100,,Aggregated,105.900000,0.000000,130,140,140,150,160,190,260,280,330,400,400,5339,0,140,145.01929200224762,102,778,35.0
1675445365,100,GET,/de/hybridapi/v2/strong_and_weak_topic_analysis_class_wise?homeworkId=63846ff066125267cf3fe396&schoolId=62bc63afc672252aaf556025&classId=634954228db9004e80e00d9f&subjectCode=kve500435,104.600000,0.000000,130,140,140,150,160,190,250,270,330,400,400,5442,0,140,144.81771407570747,102,778,35.0
1675445365,100,,Aggregated,104.600000,0.000000,130,140,140,150,160,190,250,270,330,400,400,5442,0,140,144.81771407570747,102,778,35.0
1675445366,100,GET,/de/hybridapi/v2/strong_and_weak_topic_analysis_class_wise?homeworkId=63846ff066125267cf3fe396&schoolId=62bc63afc672252aaf556025&classId=634954228db9004e80e00d9f&subjectCode=kve500435,103.600000,0.000000,130,140,140,150,160,190,250,270,330,400,400,5546,0,140,144.57861521817526,102,778,35.0
1675445366,100,,Aggregated,103.600000,0.000000,130,140,140,150,160,190,250,270,330,400,400,5546,0,140,144.57861521817526,102,778,35.0
1675445367,100,GET,/de/hybridapi/v2/strong_and_weak_topic_analysis_class_wise?homeworkId=63846ff066125267cf3fe396&schoolId=62bc63afc672252aaf556025&classId=634954228db9004e80e00d9f&subjectCode=kve500435,103.800000,0.000000,130,140,140,150,170,230,260,280,400,400,400,5645,0,140,145.00814880425156,102,778,35.0
1675445367,100,,Aggregated,103.800000,0.000000,130,140,140,150,170,230,260,280,400,400,400,5645,0,140,145.00814880425156,102,778,35.0
1675445368,100,GET,/de/hybridapi/v2/strong_and_weak_topic_analysis_class_wise?homeworkId=63846ff066125267cf3fe396&schoolId=62bc63afc672252aaf556025&classId=634954228db9004e80e00d9f&subjectCode=kve500435,103.600000,0.000000,130,140,140,150,180,230,260,280,400,400,400,5750,0,140,144.896,102,778,35.0
1675445368,100,,Aggregated,103.600000,0.000000,130,140,140,150,180,230,260,280,400,400,400,5750,0,140,144.896,102,778,35.0
1675445369,100,GET,/de/hybridapi/v2/strong_and_weak_topic_analysis_class_wise?homeworkId=63846ff066125267cf3fe396&schoolId=62bc63afc672252aaf556025&classId=634954228db9004e80e00d9f&subjectCode=kve500435,102.200000,0.000000,130,140,140,150,170,210,260,280,400,400,400,5852,0,140,144.72146274777853,102,778,35.0
1675445369,100,,Aggregated,102.200000,0.000000,130,140,140,150,170,210,260,280,400,400,400,5852,0,140,144.72146274777853,102,778,35.0
1675445370,100,GET,/de/hybridapi/v2/strong_and_weak_topic_analysis_class_wise?homeworkId=63846ff066125267cf3fe396&schoolId=62bc63afc672252aaf556025&classId=634954228db9004e80e00d9f&subjectCode=kve500435,101.800000,0.000000,130,140,140,150,170,190,240,260,400,400,400,5946,0,140,144.4651866801211,102,778,35.0
1675445370,100,,Aggregated,101.800000,0.000000,130,140,140,150,170,190,240,260,400,400,400,5946,0,140,144.4651866801211,102,778,35.0
1675445371,100,GET,/de/hybridapi/v2/strong_and_weak_topic_analysis_class_wise?homeworkId=63846ff066125267cf3fe396&schoolId=62bc63afc672252aaf556025&classId=634954228db9004e80e00d9f&subjectCode=kve500435,101.300000,0.000000,130,140,140,140,170,190,240,260,420,420,420,6044,0,140,144.21310390469887,102,778,35.0
1675445371,100,,Aggregated,101.300000,0.000000,130,140,140,140,170,190,240,260,420,420,420,6044,0,140,144.21310390469887,102,778,35.0
1675445372,100,GET,/de/hybridapi/v2/strong_and_weak_topic_analysis_class_wise?homeworkId=63846ff066125267cf3fe396&schoolId=62bc63afc672252aaf556025&classId=634954228db9004e80e00d9f&subjectCode=kve500435,101.800000,0.000000,130,140,140,140,160,180,240,260,420,420,420,6143,0,140,143.99739540940908,102,778,35.0
1675445372,100,,Aggregated,101.800000,0.000000,130,140,140,140,160,180,240,260,420,420,420,6143,0,140,143.99739540940908,102,778,35.0
1675445373,100,GET,/de/hybridapi/v2/strong_and_weak_topic_analysis_class_wise?homeworkId=63846ff066125267cf3fe396&schoolId=62bc63afc672252aaf556025&classId=634954228db9004e80e00d9f&subjectCode=kve500435,99.900000,0.000000,130,140,140,140,160,190,260,290,60000,60000,60000,6240,6,140,201.37371794871794,102,60054,34.96634615384615
1675445373,100,,Aggregated,99.900000,0.000000,130,140,140,140,160,190,260,290,60000,60000,60000,6240,6,140,201.37371794871794,102,60054,34.96634615384615
1675445374,100,GET,/de/hybridapi/v2/strong_and_weak_topic_analysis_class_wise?homeworkId=63846ff066125267cf3fe396&schoolId=62bc63afc672252aaf556025&classId=634954228db9004e80e00d9f&subjectCode=kve500435,99.800000,0.000000,130,140,140,150,170,210,270,60000,60000,60000,60000,6347,11,140,247.6614148416575,102,60054,34.939341421143844
1675445374,100,,Aggregated,99.800000,0.000000,130,140,140,150,170,210,270,60000,60000,60000,60000,6347,11,140,247.6614148416575,102,60054,34.939341421143844
1675445375,100,GET,/de/hybridapi/v2/strong_and_weak_topic_analysis_class_wise?homeworkId=63846ff066125267cf3fe396&schoolId=62bc63afc672252aaf556025&classId=634954228db9004e80e00d9f&subjectCode=kve500435,100.000000,0.000000,130,140,140,150,170,220,270,60000,60000,60000,60000,6462,13,140,264.2771587743733,102,60054,34.929588362736
1675445375,100,,Aggregated,100.000000,0.000000,130,140,140,150,170,220,270,60000,60000,60000,60000,6462,13,140,264.2771587743733,102,60054,34.929588362736
1675445376,100,GET,/de/hybridapi/v2/strong_and_weak_topic_analysis_class_wise?homeworkId=63846ff066125267cf3fe396&schoolId=62bc63afc672252aaf556025&classId=634954228db9004e80e00d9f&subjectCode=kve500435,100.000000,0.700000,130,140,140,150,170,220,290,60000,60000,60000,60000,6568,15,140,280.4456455542022,102,60054,34.92006699147381
1675445376,100,,Aggregated,100.000000,0.700000,130,140,140,150,170,220,290,60000,60000,60000,60000,6568,15,140,280.4456455542022,102,60054,34.92006699147381
1675445377,100,GET,/de/hybridapi/v2/strong_and_weak_topic_analysis_class_wise?homeworkId=63846ff066125267cf3fe396&schoolId=62bc63afc672252aaf556025&classId=634954228db9004e80e00d9f&subjectCode=kve500435,100.400000,1.200000,130,140,140,150,160,190,280,60000,60000,60000,60000,6673,15,140,278.1766821519556,102,60054,34.92132474149558
1675445377,100,,Aggregated,100.400000,1.200000,130,140,140,150,160,190,280,60000,60000,60000,60000,6673,15,140,278.1766821519556,102,60054,34.92132474149558
1675445378,100,GET,/de/hybridapi/v2/strong_and_weak_topic_analysis_class_wise?homeworkId=63846ff066125267cf3fe396&schoolId=62bc63afc672252aaf556025&classId=634954228db9004e80e00d9f&subjectCode=kve500435,101.100000,1.300000,130,140,140,150,170,200,420,60000,60000,60000,60000,6769,17,140,294.3161471413798,102,60058,34.91209927611168
1675445378,100,,Aggregated,101.100000,1.300000,130,140,140,150,170,200,420,60000,60000,60000,60000,6769,17,140,294.3161471413798,102,60058,34.91209927611168
1675445379,100,GET,/de/hybridapi/v2/strong_and_weak_topic_analysis_class_wise?homeworkId=63846ff066125267cf3fe396&schoolId=62bc63afc672252aaf556025&classId=634954228db9004e80e00d9f&subjectCode=kve500435,102.300000,1.500000,130,140,140,150,180,240,420,60000,60000,60000,60000,6883,17,140,292.1935202673253,102,60058,34.91355513584193
1675445379,100,,Aggregated,102.300000,1.500000,130,140,140,150,180,240,420,60000,60000,60000,60000,6883,17,140,292.1935202673253,102,60058,34.91355513584193
1675445380,100,GET,/de/hybridapi/v2/strong_and_weak_topic_analysis_class_wise?homeworkId=63846ff066125267cf3fe396&schoolId=62bc63afc672252aaf556025&classId=634954228db9004e80e00d9f&subjectCode=kve500435,102.500000,1.500000,130,140,150,150,180,230,620,60000,60000,60000,60000,6991,18,140,298.3288513803462,102,60058,34.909884136747245
1675445380,100,,Aggregated,102.500000,1.500000,130,140,150,150,180,230,620,60000,60000,60000,60000,6991,18,140,298.3288513803462,102,60058,34.909884136747245
1675445381,100,GET,/de/hybridapi/v2/strong_and_weak_topic_analysis_class_wise?homeworkId=63846ff066125267cf3fe396&schoolId=62bc63afc672252aaf556025&classId=634954228db9004e80e00d9f&subjectCode=kve500435,102.600000,1.700000,130,140,150,160,180,240,640,60000,60000,60000,60000,7102,19,140,304.29174880315406,102,60058,34.90636440439313
1675445381,100,,Aggregated,102.600000,1.700000,130,140,150,160,180,240,640,60000,60000,60000,60000,7102,19,140,304.29174880315406,102,60058,34.90636440439313
1675445382,100,GET,/de/hybridapi/v2/strong_and_weak_topic_analysis_class_wise?homeworkId=63846ff066125267cf3fe396&schoolId=62bc63afc672252aaf556025&classId=634954228db9004e80e00d9f&subjectCode=kve500435,103.700000,1.800000,130,140,150,160,180,240,640,60000,60000,60000,60000,7212,19,140,301.81128674431505,102,60058,34.907792567942316
1675445382,100,,Aggregated,103.700000,1.800000,130,140,150,160,180,240,640,60000,60000,60000,60000,7212,19,140,301.81128674431505,102,60058,34.907792567942316
1675445383,100,GET,/de/hybridapi/v2/strong_and_weak_topic_analysis_class_wise?homeworkId=63846ff066125267cf3fe396&schoolId=62bc63afc672252aaf556025&classId=634954228db9004e80e00d9f&subjectCode=kve500435,104.300000,1.800000,130,140,150,160,170,220,360,60000,60000,60000,60000,7316,19,140,299.4451886276654,102,60058,34.90910333515582
1675445383,100,,Aggregated,104.300000,1.800000,130,140,150,160,170,220,360,60000,60000,60000,60000,7316,19,140,299.4451886276654,102,60058,34.90910333515582
1675445384,100,GET,/de/hybridapi/v2/strong_and_weak_topic_analysis_class_wise?homeworkId=63846ff066125267cf3fe396&schoolId=62bc63afc672252aaf556025&classId=634954228db9004e80e00d9f&subjectCode=kve500435,105.200000,1.900000,130,140,150,160,170,200,340,420,60000,60000,60000,7429,20,140,305.0465742361018,102,60058,34.90577466684614
1675445384,100,,Aggregated,105.200000,1.900000,130,140,150,160,170,200,340,420,60000,60000,60000,7429,20,140,305.0465742361018,102,60058,34.90577466684614
1675445385,100,GET,/de/hybridapi/v2/strong_and_weak_topic_analysis_class_wise?homeworkId=63846ff066125267cf3fe396&schoolId=62bc63afc672252aaf556025&classId=634954228db9004e80e00d9f&subjectCode=kve500435,107.100000,1.900000,130,140,150,160,180,210,340,420,60000,60000,60000,7542,21,140,310.7006099177937,102,60058,34.90254574383453
1675445385,100,,Aggregated,107.100000,1.900000,130,140,150,160,180,210,340,420,60000,60000,60000,7542,21,140,310.7006099177937,102,60058,34.90254574383453
1675445386,100,GET,/de/hybridapi/v2/strong_and_weak_topic_analysis_class_wise?homeworkId=63846ff066125267cf3fe396&schoolId=62bc63afc672252aaf556025&classId=634954228db9004e80e00d9f&subjectCode=kve500435,108.000000,1.200000,140,150,160,160,190,230,340,400,60000,60000,60000,7651,22,140,316.4724872565678,102,60058,34.89935956084172
1675445386,100,,Aggregated,108.000000,1.200000,140,150,160,160,190,230,340,400,60000,60000,60000,7651,22,140,316.4724872565678,102,60058,34.89935956084172
1675445387,100,GET,/de/hybridapi/v2/strong_and_weak_topic_analysis_class_wise?homeworkId=63846ff066125267cf3fe396&schoolId=62bc63afc672252aaf556025&classId=634954228db9004e80e00d9f&subjectCode=kve500435,108.100000,0.800000,140,150,160,170,190,230,340,400,60000,60000,60000,7765,23,140,321.81339343206696,102,60058,34.89632968448165
1675445387,100,,Aggregated,108.100000,0.800000,140,150,160,170,190,230,340,400,60000,60000,60000,7765,23,140,321.81339343206696,102,60058,34.89632968448165
1675445388,100,GET,/de/hybridapi/v2/strong_and_weak_topic_analysis_class_wise?homeworkId=63846ff066125267cf3fe396&schoolId=62bc63afc672252aaf556025&classId=634954228db9004e80e00d9f&subjectCode=kve500435,108.600000,0.800000,140,150,160,160,180,200,240,260,60000,60000,60000,7876,23,140,319.3378618588116,102,60058,34.89779075672931
1675445388,100,,Aggregated,108.600000,0.800000,140,150,160,160,180,200,240,260,60000,60000,60000,7876,23,140,319.3378618588116,102,60058,34.89779075672931
1675445389,100,GET,/de/hybridapi/v2/strong_and_weak_topic_analysis_class_wise?homeworkId=63846ff066125267cf3fe396&schoolId=62bc63afc672252aaf556025&classId=634954228db9004e80e00d9f&subjectCode=kve500435,109.100000,0.700000,140,150,160,160,180,200,240,260,60000,60000,60000,7987,23,140,316.7614874170527,102,60058,34.899211218229624
1675445389,100,,Aggregated,109.100000,0.700000,140,150,160,160,180,200,240,260,60000,60000,60000,7987,23,140,316.7614874170527,102,60058,34.899211218229624
1675445390,100,GET,/de/hybridapi/v2/strong_and_weak_topic_analysis_class_wise?homeworkId=63846ff066125267cf3fe396&schoolId=62bc63afc672252aaf556025&classId=634954228db9004e80e00d9f&subjectCode=kve500435,108.400000,0.800000,140,150,160,170,180,200,240,260,60000,60000,60000,8110,23,140,314.2202219482121,102,60058,34.90073982737361
1675445390,100,,Aggregated,108.400000,0.800000,140,150,160,170,180,200,240,260,60000,60000,60000,8110,23,140,314.2202219482121,102,60058,34.90073982737361
1675445391,100,GET,/de/hybridapi/v2/strong_and_weak_topic_analysis_class_wise?homeworkId=63846ff066125267cf3fe396&schoolId=62bc63afc672252aaf556025&classId=634954228db9004e80e00d9f&subjectCode=kve500435,108.500000,0.600000,140,150,160,160,180,200,240,260,60000,60000,60000,8211,23,140,312.14005602240894,102,60058,34.90196078431372
1675445391,100,,Aggregated,108.500000,0.600000,140,150,160,160,180,200,240,260,60000,60000,60000,8211,23,140,312.14005602240894,102,60058,34.90196078431372
1675445392,100,GET,/de/hybridapi/v2/strong_and_weak_topic_analysis_class_wise?homeworkId=63846ff066125267cf3fe396&schoolId=62bc63afc672252aaf556025&classId=634954228db9004e80e00d9f&subjectCode=kve500435,110.200000,0.500000,140,150,160,160,190,210,240,310,60000,60000,60000,8316,24,140,317.1374458874459,102,60058,34.898989898989896
1675445392,100,,Aggregated,110.200000,0.500000,140,150,160,160,190,210,240,310,60000,60000,60000,8316,24,140,317.1374458874459,102,60058,34.898989898989896
1675445393,100,GET,/de/hybridapi/v2/strong_and_weak_topic_analysis_class_wise?homeworkId=63846ff066125267cf3fe396&schoolId=62bc63afc672252aaf556025&classId=634954228db9004e80e00d9f&subjectCode=kve500435,111.800000,0.500000,140,150,160,170,190,210,250,310,60000,60000,60000,8430,25,140,322.0609727164887,102,60058,34.89620403321471
1675445393,100,,Aggregated,111.800000,0.500000,140,150,160,170,190,210,250,310,60000,60000,60000,8430,25,140,322.0609727164887,102,60058,34.89620403321471
1675445394,100,GET,/de/hybridapi/v2/strong_and_weak_topic_analysis_class_wise?homeworkId=63846ff066125267cf3fe396&schoolId=62bc63afc672252aaf556025&classId=634954228db9004e80e00d9f&subjectCode=kve500435,110.500000,0.400000,140,150,160,170,190,210,240,290,60000,60000,60000,8544,25,140,319.5816947565543,102,60058,34.89758895131086
1675445394,100,,Aggregated,110.500000,0.400000,140,150,160,170,190,210,240,290,60000,60000,60000,8544,25,140,319.5816947565543,102,60058,34.89758895131086
1675445395,100,GET,/de/hybridapi/v2/strong_and_weak_topic_analysis_class_wise?homeworkId=63846ff066125267cf3fe396&schoolId=62bc63afc672252aaf556025&classId=634954228db9004e80e00d9f&subjectCode=kve500435,110.100000,0.500000,140,150,160,160,180,200,240,260,60000,60000,60000,8649,25,140,317.3120591975951,102,60058,34.89883223494046
1675445395,100,,Aggregated,110.100000,0.500000,140,150,160,160,180,200,240,260,60000,60000,60000,8649,25,140,317.3120591975951,102,60058,34.89883223494046
1675445396,100,GET,/de/hybridapi/v2/strong_and_weak_topic_analysis_class_wise?homeworkId=63846ff066125267cf3fe396&schoolId=62bc63afc672252aaf556025&classId=634954228db9004e80e00d9f&subjectCode=kve500435,109.800000,0.600000,140,150,150,160,180,200,210,260,60000,60000,60000,8756,25,140,315.19655093650067,102,60058,34.900068524440385
1675445396,100,,Aggregated,109.800000,0.600000,140,150,150,160,180,200,210,260,60000,60000,60000,8756,25,140,315.19655093650067,102,60058,34.900068524440385
1675445397,100,GET,/de/hybridapi/v2/strong_and_weak_topic_analysis_class_wise?homeworkId=63846ff066125267cf3fe396&schoolId=62bc63afc672252aaf556025&classId=634954228db9004e80e00d9f&subjectCode=kve500435,110.800000,0.500000,140,140,150,160,180,200,220,260,60000,60000,60000,8865,26,140,319.8583192329385,102,60058,34.89734912577552
1675445397,100,,Aggregated,110.800000,0.500000,140,140,150,160,180,200,220,260,60000,60000,60000,8865,26,140,319.8583192329385,102,60058,34.89734912577552
1675445398,100,GET,/de/hybridapi/v2/strong_and_weak_topic_analysis_class_wise?homeworkId=63846ff066125267cf3fe396&schoolId=62bc63afc672252aaf556025&classId=634954228db9004e80e00d9f&subjectCode=kve500435,109.400000,0.400000,140,140,150,160,170,200,220,260,60000,60000,60000,8975,27,140,324.2772144846797,102,60058,34.894707520891366
1675445398,100,,Aggregated,109.400000,0.400000,140,140,150,160,170,200,220,260,60000,60000,60000,8975,27,140,324.2772144846797,102,60058,34.894707520891366
1675445399,100,GET,/de/hybridapi/v2/strong_and_weak_topic_analysis_class_wise?homeworkId=63846ff066125267cf3fe396&schoolId=62bc63afc672252aaf556025&classId=634954228db9004e80e00d9f&subjectCode=kve500435,108.800000,0.300000,140,140,150,150,170,200,210,240,60000,60000,60000,9077,27,140,322.1023465902831,102,60058,34.89589071279057
1675445399,100,,Aggregated,108.800000,0.300000,140,140,150,150,170,200,210,240,60000,60000,60000,9077,27,140,322.1023465902831,102,60058,34.89589071279057
1675445400,100,GET,/de/hybridapi/v2/strong_and_weak_topic_analysis_class_wise?homeworkId=63846ff066125267cf3fe396&schoolId=62bc63afc672252aaf556025&classId=634954228db9004e80e00d9f&subjectCode=kve500435,110.200000,0.300000,130,140,150,150,170,200,210,240,60000,60000,60000,9190,27,140,319.9038084874864,102,60058,34.89717083786725
1675445400,100,,Aggregated,110.200000,0.300000,130,140,150,150,170,200,210,240,60000,60000,60000,9190,27,140,319.9038084874864,102,60058,34.89717083786725
1675445401,100,GET,/de/hybridapi/v2/strong_and_weak_topic_analysis_class_wise?homeworkId=63846ff066125267cf3fe396&schoolId=62bc63afc672252aaf556025&classId=634954228db9004e80e00d9f&subjectCode=kve500435,110.000000,0.400000,140,140,150,160,180,200,220,250,60000,60000,60000,9304,27,140,317.90444969905417,102,60058,34.89843078245916
1675445401,100,,Aggregated,110.000000,0.400000,140,140,150,160,180,200,220,250,60000,60000,60000,9304,27,140,317.90444969905417,102,60058,34.89843078245916
1675445402,100,GET,/de/hybridapi/v2/strong_and_weak_topic_analysis_class_wise?homeworkId=63846ff066125267cf3fe396&schoolId=62bc63afc672252aaf556025&classId=634954228db9004e80e00d9f&subjectCode=kve500435,108.300000,0.400000,140,140,150,160,180,200,210,240,60000,60000,60000,9402,27,140,315.99223569453306,102,60058,34.89948947032546
1675445402,100,,Aggregated,108.300000,0.400000,140,140,150,160,180,200,210,240,60000,60000,60000,9402,27,140,315.99223569453306,102,60058,34.89948947032546
1675445403,100,GET,/de/hybridapi/v2/strong_and_weak_topic_analysis_class_wise?homeworkId=63846ff066125267cf3fe396&schoolId=62bc63afc672252aaf556025&classId=634954228db9004e80e00d9f&subjectCode=kve500435,107.200000,0.400000,130,140,150,150,170,190,210,230,60000,60000,60000,9519,27,140,313.8741464439542,102,60058,34.90072486605736
1675445403,100,,Aggregated,107.200000,0.400000,130,140,150,150,170,190,210,230,60000,60000,60000,9519,27,140,313.8741464439542,102,60058,34.90072486605736
1675445404,100,GET,/de/hybridapi/v2/strong_and_weak_topic_analysis_class_wise?homeworkId=63846ff066125267cf3fe396&schoolId=62bc63afc672252aaf556025&classId=634954228db9004e80e00d9f&subjectCode=kve500435,109.100000,0.400000,140,140,150,160,170,190,210,240,60000,60000,60000,9627,28,140,318.2015165679859,102,60058,34.89820297081126
1675445404,100,,Aggregated,109.100000,0.400000,140,140,150,160,170,190,210,240,60000,60000,60000,9627,28,140,318.2015165679859,102,60058,34.89820297081126
1675445405,100,GET,/de/hybridapi/v2/strong_and_weak_topic_analysis_class_wise?homeworkId=63846ff066125267cf3fe396&schoolId=62bc63afc672252aaf556025&classId=634954228db9004e80e00d9f&subjectCode=kve500435,108.400000,0.300000,140,140,150,160,170,190,210,240,60000,60000,60000,9739,28,140,316.0653044460417,102,60058,34.8993736523257
1675445405,100,,Aggregated,108.400000,0.300000,140,140,150,160,170,190,210,240,60000,60000,60000,9739,28,140,316.0653044460417,102,60058,34.8993736523257
1675445406,100,GET,/de/hybridapi/v2/strong_and_weak_topic_analysis_class_wise?homeworkId=63846ff066125267cf3fe396&schoolId=62bc63afc672252aaf556025&classId=634954228db9004e80e00d9f&subjectCode=kve500435,108.200000,0.200000,130,140,150,150,170,190,210,260,60000,60000,60000,9832,28,140,314.3990032546786,102,60058,34.90032546786005
1675445406,100,,Aggregated,108.200000,0.200000,130,140,150,150,170,190,210,260,60000,60000,60000,9832,28,140,314.3990032546786,102,60058,34.90032546786005
1675445407,100,GET,/de/hybridapi/v2/strong_and_weak_topic_analysis_class_wise?homeworkId=63846ff066125267cf3fe396&schoolId=62bc63afc672252aaf556025&classId=634954228db9004e80e00d9f&subjectCode=kve500435,107.900000,0.300000,140,140,150,150,170,180,210,250,60000,60000,60000,9944,28,140,312.4134151246983,102,60058,34.90144810941271
1675445407,100,,Aggregated,107.900000,0.300000,140,140,150,150,170,180,210,250,60000,60000,60000,9944,28,140,312.4134151246983,102,60058,34.90144810941271
1675445408,100,GET,/de/hybridapi/v2/strong_and_weak_topic_analysis_class_wise?homeworkId=63846ff066125267cf3fe396&schoolId=62bc63afc672252aaf556025&classId=634954228db9004e80e00d9f&subjectCode=kve500435,107.900000,0.300000,140,140,150,160,180,220,380,400,60000,60000,60000,10038,30,140,323.569834628412,102,60058,34.89539748953975
1675445408,100,,Aggregated,107.900000,0.300000,140,140,150,160,180,220,380,400,60000,60000,60000,10038,30,140,323.569834628412,102,60058,34.89539748953975
1675445409,100,GET,/de/hybridapi/v2/strong_and_weak_topic_analysis_class_wise?homeworkId=63846ff066125267cf3fe396&schoolId=62bc63afc672252aaf556025&classId=634954228db9004e80e00d9f&subjectCode=kve500435,107.700000,0.300000,140,140,150,160,180,220,380,400,60000,60000,60000,10137,30,140,321.77587057314787,102,60058,34.896419058893166
1675445409,100,,Aggregated,107.700000,0.300000,140,140,150,160,180,220,380,400,60000,60000,60000,10137,30,140,321.77587057314787,102,60058,34.896419058893166
1675445410,100,GET,/de/hybridapi/v2/strong_and_weak_topic_analysis_class_wise?homeworkId=63846ff066125267cf3fe396&schoolId=62bc63afc672252aaf556025&classId=634954228db9004e80e00d9f&subjectCode=kve500435,107.300000,0.200000,140,150,160,160,180,240,380,400,60000,60000,60000,10246,30,140,319.90171774350966,102,60058,34.89752098379856
1675445410,100,,Aggregated,107.300000,0.200000,140,150,160,160,180,240,380,400,60000,60000,60000,10246,30,140,319.90171774350966,102,60058,34.89752098379856
1675445411,100,GET,/de/hybridapi/v2/strong_and_weak_topic_analysis_class_wise?homeworkId=63846ff066125267cf3fe396&schoolId=62bc63afc672252aaf556025&classId=634954228db9004e80e00d9f&subjectCode=kve500435,106.600000,0.300000,140,140,150,160,180,240,380,400,60000,60000,60000,10349,30,140,318.1603053435114,102,60058,34.89854092182819
1675445411,100,,Aggregated,106.600000,0.300000,140,140,150,160,180,240,380,400,60000,60000,60000,10349,30,140,318.1603053435114,102,60058,34.89854092182819
1675445412,100,GET,/de/hybridapi/v2/strong_and_weak_topic_analysis_class_wise?homeworkId=63846ff066125267cf3fe396&schoolId=62bc63afc672252aaf556025&classId=634954228db9004e80e00d9f&subjectCode=kve500435,104.800000,0.300000,140,140,150,160,180,240,380,400,60000,60000,60000,10448,30,140,316.4304173047473,102,60058,34.89950229709035
1675445412,100,,Aggregated,104.800000,0.300000,140,140,150,160,180,240,380,400,60000,60000,60000,10448,30,140,316.4304173047473,102,60058,34.89950229709035
1675445413,100,GET,/de/hybridapi/v2/strong_and_weak_topic_analysis_class_wise?homeworkId=63846ff066125267cf3fe396&schoolId=62bc63afc672252aaf556025&classId=634954228db9004e80e00d9f&subjectCode=kve500435,104.900000,0.300000,140,140,150,160,180,240,390,400,60000,60000,60000,10548,31,140,320.3980849450133,102,60058,34.89713689799014
1675445413,100,,Aggregated,104.900000,0.300000,140,140,150,160,180,240,390,400,60000,60000,60000,10548,31,140,320.3980849450133,102,60058,34.89713689799014
1675445414,100,GET,/de/hybridapi/v2/strong_and_weak_topic_analysis_class_wise?homeworkId=63846ff066125267cf3fe396&schoolId=62bc63afc672252aaf556025&classId=634954228db9004e80e00d9f&subjectCode=kve500435,103.900000,0.300000,130,140,150,150,170,240,380,400,60000,60000,60000,10640,31,140,318.71221804511276,102,60058,34.89802631578947
1675445414,100,,Aggregated,103.900000,0.300000,130,140,150,150,170,240,380,400,60000,60000,60000,10640,31,140,318.71221804511276,102,60058,34.89802631578947
1675445415,100,GET,/de/hybridapi/v2/strong_and_weak_topic_analysis_class_wise?homeworkId=63846ff066125267cf3fe396&schoolId=62bc63afc672252aaf556025&classId=634954228db9004e80e00d9f&subjectCode=kve500435,103.800000,0.300000,130,140,150,150,180,260,390,400,60000,60000,60000,10743,32,140,322.5562691985479,102,60058,34.89574606720655
1675445415,100,,Aggregated,103.800000,0.300000,130,140,150,150,180,260,390,400,60000,60000,60000,10743,32,140,322.5562691985479,102,60058,34.89574606720655
1675445416,100,GET,/de/hybridapi/v2/strong_and_weak_topic_analysis_class_wise?homeworkId=63846ff066125267cf3fe396&schoolId=62bc63afc672252aaf556025&classId=634954228db9004e80e00d9f&subjectCode=kve500435,102.800000,0.400000,130,140,150,150,170,240,380,400,60000,60000,60000,10849,32,140,320.7370264540511,102,60058,34.896764678772236
1675445416,100,,Aggregated,102.800000,0.400000,130,140,150,150,170,240,380,400,60000,60000,60000,10849,32,140,320.7370264540511,102,60058,34.896764678772236
1675445417,100,GET,/de/hybridapi/v2/strong_and_weak_topic_analysis_class_wise?homeworkId=63846ff066125267cf3fe396&schoolId=62bc63afc672252aaf556025&classId=634954228db9004e80e00d9f&subjectCode=kve500435,100.900000,0.300000,130,140,150,150,180,250,390,400,60000,60000,60000,10953,32,140,319.07413494019903,102,60058,34.8977449100703
1675445417,100,,Aggregated,100.900000,0.300000,130,140,150,150,180,250,390,400,60000,60000,60000,10953,32,140,319.07413494019903,102,60058,34.8977449100703
1675445418,100,GET,/de/hybridapi/v2/strong_and_weak_topic_analysis_class_wise?homeworkId=63846ff066125267cf3fe396&schoolId=62bc63afc672252aaf556025&classId=634954228db9004e80e00d9f&subjectCode=kve500435,100.500000,0.400000,130,140,140,150,160,180,200,250,60000,60000,60000,11061,32,140,317.32185155049274,102,60058,34.898743332429255
1675445418,100,,Aggregated,100.500000,0.400000,130,140,140,150,160,180,200,250,60000,60000,60000,11061,32,140,317.32185155049274,102,60058,34.898743332429255
1675445419,100,GET,/de/hybridapi/v2/strong_and_weak_topic_analysis_class_wise?homeworkId=63846ff066125267cf3fe396&schoolId=62bc63afc672252aaf556025&classId=634954228db9004e80e00d9f&subjectCode=kve500435,101.200000,0.400000,130,140,140,150,160,180,200,250,60000,60000,60000,11165,33,140,320.920197044335,102,60058,34.89655172413793
1675445419,100,,Aggregated,101.200000,0.400000,130,140,140,150,160,180,200,250,60000,60000,60000,11165,33,140,320.920197044335,102,60058,34.89655172413793
1675445420,100,GET,/de/hybridapi/v2/strong_and_weak_topic_analysis_class_wise?homeworkId=63846ff066125267cf3fe396&schoolId=62bc63afc672252aaf556025&classId=634954228db9004e80e00d9f&subjectCode=kve500435,100.400000,0.400000,130,140,140,150,160,170,200,250,60000,60000,60000,11265,33,140,319.33271193963606,102,60058,34.89747003994674
1675445420,100,,Aggregated,100.400000,0.400000,130,140,140,150,160,170,200,250,60000,60000,60000,11265,33,140,319.33271193963606,102,60058,34.89747003994674
1675445421,100,GET,/de/hybridapi/v2/strong_and_weak_topic_analysis_class_wise?homeworkId=63846ff066125267cf3fe396&schoolId=62bc63afc672252aaf556025&classId=634954228db9004e80e00d9f&subjectCode=kve500435,100.800000,0.200000,130,140,140,150,160,170,200,240,60000,60000,60000,11371,33,140,317.5639785419049,102,60058,34.898425820068596
1675445421,100,,Aggregated,100.800000,0.200000,130,140,140,150,160,170,200,240,60000,60000,60000,11371,33,140,317.5639785419049,102,60058,34.898425820068596
1675445422,100,GET,/de/hybridapi/v2/strong_and_weak_topic_analysis_class_wise?homeworkId=63846ff066125267cf3fe396&schoolId=62bc63afc672252aaf556025&classId=634954228db9004e80e00d9f&subjectCode=kve500435,102.500000,0.300000,130,140,140,150,160,170,200,240,60000,60000,60000,11479,34,140,321.03083892325117,102,60058,34.896332433138774
1675445422,100,,Aggregated,102.500000,0.300000,130,140,140,150,160,170,200,240,60000,60000,60000,11479,34,140,321.03083892325117,102,60058,34.896332433138774
