Type,Name,Request Count,Failure Count,Median Response Time,Average Response Time,Min Response Time,Max Response Time,Average Content Size,Requests/s,Failures/s,50%,66%,75%,80%,90%,95%,98%,99%,99.9%,99.99%,100%
POST,/de/hybridapi/v2/get_homework_content_progress,8383,55,280,717.2775855898843,73,60057,483.8048431349159,70.18852319481151,0.4604996750226212,280,360,410,450,580,720,930,1100,60000,60000,60000
,Aggregated,8383,55,280,717.2775855898843,73,60057,483.8048431349159,70.18852319481151,0.4604996750226212,280,360,410,450,580,720,930,1100,60000,60000,60000
