Timestamp,User Count,Type,Name,Requests/s,Failures/s,50%,66%,75%,80%,90%,95%,98%,99%,99.9%,99.99%,100%,Total Request Count,Total Failure Count,Total Median Response Time,Total Average Response Time,Total Min Response Time,Total Max Response Time,Total Average Content Size
1675447864,0,,Aggregated,0.000000,0.000000,N/A,N/A,N/A,N/A,N/A,N/A,N/A,N/A,N/A,N/A,N/A,0,0,0,0.0,0,0,0
1675447865,10,GET,/de/hybridapi/v3/homework_timespent_by_content?homeworkId=63846ff066125267cf3fe396&userId=1501413831&schoolId=62bc63afc672252aaf556025&classId=634954228db9004e80e00d9f,0.000000,0.000000,0,0,0,0,0,0,0,0,0,0,0,24,0,21,44.583333333333336,15,89,0.0
1675447865,10,,Aggregated,0.000000,0.000000,0,0,0,0,0,0,0,0,0,0,0,24,0,21,44.583333333333336,15,89,0.0
1675447866,20,GET,/de/hybridapi/v3/homework_timespent_by_content?homeworkId=63846ff066125267cf3fe396&userId=1501413831&schoolId=62bc63afc672252aaf556025&classId=634954228db9004e80e00d9f,0.000000,0.000000,21,21,26,29,70,75,76,100,100,100,100,67,0,21,37.134328358208954,15,101,0.0
1675447866,20,,Aggregated,0.000000,0.000000,21,21,26,29,70,75,76,100,100,100,100,67,0,21,37.134328358208954,15,101,0.0
1675447867,30,GET,/de/hybridapi/v3/homework_timespent_by_content?homeworkId=63846ff066125267cf3fe396&userId=1501413831&schoolId=62bc63afc672252aaf556025&classId=634954228db9004e80e00d9f,12.000000,0.000000,21,25,27,32,75,80,86,87,100,100,100,121,0,21,35.06611570247934,15,101,0.0
1675447867,30,,Aggregated,12.000000,0.000000,21,25,27,32,75,80,86,87,100,100,100,121,0,21,35.06611570247934,15,101,0.0
1675447868,40,GET,/de/hybridapi/v3/homework_timespent_by_content?homeworkId=63846ff066125267cf3fe396&userId=1501413831&schoolId=62bc63afc672252aaf556025&classId=634954228db9004e80e00d9f,21.000000,0.000000,21,24,27,32,75,80,86,87,100,100,100,207,0,21,32.594202898550726,14,101,0.0
1675447868,40,,Aggregated,21.000000,0.000000,21,24,27,32,75,80,86,87,100,100,100,207,0,21,32.594202898550726,14,101,0.0
1675447869,50,GET,/de/hybridapi/v3/homework_timespent_by_content?homeworkId=63846ff066125267cf3fe396&userId=1501413831&schoolId=62bc63afc672252aaf556025&classId=634954228db9004e80e00d9f,29.333333,0.000000,21,22,26,29,74,80,86,91,100,100,100,305,0,21,31.17377049180328,14,105,0.0
1675447869,50,,Aggregated,29.333333,0.000000,21,22,26,29,74,80,86,91,100,100,100,305,0,21,31.17377049180328,14,105,0.0
1675447870,60,GET,/de/hybridapi/v3/homework_timespent_by_content?homeworkId=63846ff066125267cf3fe396&userId=1501413831&schoolId=62bc63afc672252aaf556025&classId=634954228db9004e80e00d9f,41.250000,0.000000,21,22,26,28,74,80,90,100,120,120,120,408,0,21,30.33823529411765,14,123,0.0
1675447870,60,,Aggregated,41.250000,0.000000,21,22,26,28,74,80,90,100,120,120,120,408,0,21,30.33823529411765,14,123,0.0
1675447871,70,GET,/de/hybridapi/v3/homework_timespent_by_content?homeworkId=63846ff066125267cf3fe396&userId=1501413831&schoolId=62bc63afc672252aaf556025&classId=634954228db9004e80e00d9f,49.800000,0.000000,21,22,26,28,73,81,88,100,120,120,120,546,0,21,29.474358974358974,14,123,0.0
1675447871,70,,Aggregated,49.800000,0.000000,21,22,26,28,73,81,88,100,120,120,120,546,0,21,29.474358974358974,14,123,0.0
1675447872,80,GET,/de/hybridapi/v3/homework_timespent_by_content?homeworkId=63846ff066125267cf3fe396&userId=1501413831&schoolId=62bc63afc672252aaf556025&classId=634954228db9004e80e00d9f,57.833333,0.000000,21,22,26,28,71,81,94,110,120,120,120,691,0,21,29.36324167872648,14,123,0.0
1675447872,80,,Aggregated,57.833333,0.000000,21,22,26,28,71,81,94,110,120,120,120,691,0,21,29.36324167872648,14,123,0.0
1675447873,90,GET,/de/hybridapi/v3/homework_timespent_by_content?homeworkId=63846ff066125267cf3fe396&userId=1501413831&schoolId=62bc63afc672252aaf556025&classId=634954228db9004e80e00d9f,66.714286,0.000000,21,22,26,28,69,81,91,100,120,120,120,862,0,21,28.67865429234339,14,123,0.0
1675447873,90,,Aggregated,66.714286,0.000000,21,22,26,28,69,81,91,100,120,120,120,862,0,21,28.67865429234339,14,123,0.0
1675447874,100,GET,/de/hybridapi/v3/homework_timespent_by_content?homeworkId=63846ff066125267cf3fe396&userId=1501413831&schoolId=62bc63afc672252aaf556025&classId=634954228db9004e80e00d9f,75.125000,0.000000,22,23,26,28,60,80,91,100,120,130,130,1058,0,22,28.56710775047259,14,133,0.0
1675447874,100,,Aggregated,75.125000,0.000000,22,23,26,28,60,80,91,100,120,130,130,1058,0,22,28.56710775047259,14,133,0.0
1675447875,100,GET,/de/hybridapi/v3/homework_timespent_by_content?homeworkId=63846ff066125267cf3fe396&userId=1501413831&schoolId=62bc63afc672252aaf556025&classId=634954228db9004e80e00d9f,84.111111,0.000000,22,23,26,28,43,79,88,100,120,130,130,1248,0,22,27.59294871794872,14,133,0.0
1675447875,100,,Aggregated,84.111111,0.000000,22,23,26,28,43,79,88,100,120,130,130,1248,0,22,27.59294871794872,14,133,0.0
1675447876,100,GET,/de/hybridapi/v3/homework_timespent_by_content?homeworkId=63846ff066125267cf3fe396&userId=1501413831&schoolId=62bc63afc672252aaf556025&classId=634954228db9004e80e00d9f,93.900000,0.000000,22,23,26,28,40,74,88,97,120,130,130,1434,0,22,27.24407252440725,14,133,0.0
1675447876,100,,Aggregated,93.900000,0.000000,22,23,26,28,40,74,88,97,120,130,130,1434,0,22,27.24407252440725,14,133,0.0
1675447877,100,GET,/de/hybridapi/v3/homework_timespent_by_content?homeworkId=63846ff066125267cf3fe396&userId=1501413831&schoolId=62bc63afc672252aaf556025&classId=634954228db9004e80e00d9f,111.600000,0.000000,22,23,24,27,34,67,85,94,120,130,130,1636,0,22,26.596577017114914,14,133,0.0
1675447877,100,,Aggregated,111.600000,0.000000,22,23,24,27,34,67,85,94,120,130,130,1636,0,22,26.596577017114914,14,133,0.0
1675447878,100,GET,/de/hybridapi/v3/homework_timespent_by_content?homeworkId=63846ff066125267cf3fe396&userId=1501413831&schoolId=62bc63afc672252aaf556025&classId=634954228db9004e80e00d9f,127.500000,0.000000,22,23,24,27,33,52,84,94,120,130,130,1828,0,22,26.059628008752735,14,133,0.0
1675447878,100,,Aggregated,127.500000,0.000000,22,23,24,27,33,52,84,94,120,130,130,1828,0,22,26.059628008752735,14,133,0.0
1675447879,100,GET,/de/hybridapi/v3/homework_timespent_by_content?homeworkId=63846ff066125267cf3fe396&userId=1501413831&schoolId=62bc63afc672252aaf556025&classId=634954228db9004e80e00d9f,141.800000,0.000000,22,23,24,27,30,44,81,90,120,130,130,2003,0,22,25.587119321018474,14,133,0.0
1675447879,100,,Aggregated,141.800000,0.000000,22,23,24,27,30,44,81,90,120,130,130,2003,0,22,25.587119321018474,14,133,0.0
1675447880,100,GET,/de/hybridapi/v3/homework_timespent_by_content?homeworkId=63846ff066125267cf3fe396&userId=1501413831&schoolId=62bc63afc672252aaf556025&classId=634954228db9004e80e00d9f,153.100000,0.000000,22,23,24,27,29,40,73,85,120,130,130,2193,0,22,25.34701322389421,14,133,0.0
1675447880,100,,Aggregated,153.100000,0.000000,22,23,24,27,29,40,73,85,120,130,130,2193,0,22,25.34701322389421,14,133,0.0
1675447881,100,GET,/de/hybridapi/v3/homework_timespent_by_content?homeworkId=63846ff066125267cf3fe396&userId=1501413831&schoolId=62bc63afc672252aaf556025&classId=634954228db9004e80e00d9f,165.200000,0.000000,22,23,24,27,29,39,57,83,120,130,130,2389,0,22,25.135621598995396,14,133,0.0
1675447881,100,,Aggregated,165.200000,0.000000,22,23,24,27,29,39,57,83,120,130,130,2389,0,22,25.135621598995396,14,133,0.0
1675447882,100,GET,/de/hybridapi/v3/homework_timespent_by_content?homeworkId=63846ff066125267cf3fe396&userId=1501413831&schoolId=62bc63afc672252aaf556025&classId=634954228db9004e80e00d9f,172.000000,0.000000,22,23,23,25,29,35,49,66,97,130,130,2586,0,22,24.931941221964422,14,133,0.0
1675447882,100,,Aggregated,172.000000,0.000000,22,23,23,25,29,35,49,66,97,130,130,2586,0,22,24.931941221964422,14,133,0.0
1675447883,100,GET,/de/hybridapi/v3/homework_timespent_by_content?homeworkId=63846ff066125267cf3fe396&userId=1501413831&schoolId=62bc63afc672252aaf556025&classId=634954228db9004e80e00d9f,179.400000,0.000000,22,23,24,27,29,34,47,52,94,95,95,2768,0,22,25.003973988439306,14,133,0.0
1675447883,100,,Aggregated,179.400000,0.000000,22,23,24,27,29,34,47,52,94,95,95,2768,0,22,25.003973988439306,14,133,0.0
1675447884,100,GET,/de/hybridapi/v3/homework_timespent_by_content?homeworkId=63846ff066125267cf3fe396&userId=1501413831&schoolId=62bc63afc672252aaf556025&classId=634954228db9004e80e00d9f,185.900000,0.000000,22,23,23,25,29,34,46,52,94,95,95,2959,0,22,24.751943224062185,14,133,0.0
1675447884,100,,Aggregated,185.900000,0.000000,22,23,23,25,29,34,46,52,94,95,95,2959,0,22,24.751943224062185,14,133,0.0
1675447885,100,GET,/de/hybridapi/v3/homework_timespent_by_content?homeworkId=63846ff066125267cf3fe396&userId=1501413831&schoolId=62bc63afc672252aaf556025&classId=634954228db9004e80e00d9f,188.700000,0.000000,22,23,23,24,29,34,44,52,94,95,95,3151,0,22,24.542050142811807,14,133,0.0
1675447885,100,,Aggregated,188.700000,0.000000,22,23,23,24,29,34,44,52,94,95,95,3151,0,22,24.542050142811807,14,133,0.0
1675447886,100,GET,/de/hybridapi/v3/homework_timespent_by_content?homeworkId=63846ff066125267cf3fe396&userId=1501413831&schoolId=62bc63afc672252aaf556025&classId=634954228db9004e80e00d9f,189.200000,0.000000,22,23,23,24,29,33,41,47,94,95,95,3343,0,22,24.354172898594076,14,133,0.0
1675447886,100,,Aggregated,189.200000,0.000000,22,23,23,24,29,33,41,47,94,95,95,3343,0,22,24.354172898594076,14,133,0.0
1675447887,100,GET,/de/hybridapi/v3/homework_timespent_by_content?homeworkId=63846ff066125267cf3fe396&userId=1501413831&schoolId=62bc63afc672252aaf556025&classId=634954228db9004e80e00d9f,189.600000,0.000000,22,23,23,24,29,31,41,47,94,95,95,3539,0,22,24.179146651596497,14,133,0.0
1675447887,100,,Aggregated,189.600000,0.000000,22,23,23,24,29,31,41,47,94,95,95,3539,0,22,24.179146651596497,14,133,0.0
1675447888,100,GET,/de/hybridapi/v3/homework_timespent_by_content?homeworkId=63846ff066125267cf3fe396&userId=1501413831&schoolId=62bc63afc672252aaf556025&classId=634954228db9004e80e00d9f,189.100000,0.000000,22,23,23,24,29,33,42,48,94,95,95,3722,0,22,24.065287479849545,14,133,0.0
1675447888,100,,Aggregated,189.100000,0.000000,22,23,23,24,29,33,42,48,94,95,95,3722,0,22,24.065287479849545,14,133,0.0
1675447889,100,GET,/de/hybridapi/v3/homework_timespent_by_content?homeworkId=63846ff066125267cf3fe396&userId=1501413831&schoolId=62bc63afc672252aaf556025&classId=634954228db9004e80e00d9f,190.600000,0.000000,22,23,23,24,29,33,44,49,94,95,95,3915,0,22,23.958620689655174,14,133,0.0
1675447889,100,,Aggregated,190.600000,0.000000,22,23,23,24,29,33,44,49,94,95,95,3915,0,22,23.958620689655174,14,133,0.0
1675447890,100,GET,/de/hybridapi/v3/homework_timespent_by_content?homeworkId=63846ff066125267cf3fe396&userId=1501413831&schoolId=62bc63afc672252aaf556025&classId=634954228db9004e80e00d9f,190.200000,0.000000,22,23,23,24,29,33,40,47,70,90,90,4106,0,22,23.886994641987336,14,133,0.0
1675447890,100,,Aggregated,190.200000,0.000000,22,23,23,24,29,33,40,47,70,90,90,4106,0,22,23.886994641987336,14,133,0.0
1675447891,100,GET,/de/hybridapi/v3/homework_timespent_by_content?homeworkId=63846ff066125267cf3fe396&userId=1501413831&schoolId=62bc63afc672252aaf556025&classId=634954228db9004e80e00d9f,187.300000,0.000000,22,23,23,24,29,33,41,49,70,90,90,4312,0,22,23.872448979591837,14,133,0.0
1675447891,100,,Aggregated,187.300000,0.000000,22,23,23,24,29,33,41,49,70,90,90,4312,0,22,23.872448979591837,14,133,0.0
1675447892,100,GET,/de/hybridapi/v3/homework_timespent_by_content?homeworkId=63846ff066125267cf3fe396&userId=1501413831&schoolId=62bc63afc672252aaf556025&classId=634954228db9004e80e00d9f,190.200000,0.000000,22,23,23,27,29,33,39,46,64,70,70,4502,0,22,23.87027987561084,14,133,0.0
1675447892,100,,Aggregated,190.200000,0.000000,22,23,23,27,29,33,39,46,64,70,70,4502,0,22,23.87027987561084,14,133,0.0
1675447893,100,GET,/de/hybridapi/v3/homework_timespent_by_content?homeworkId=63846ff066125267cf3fe396&userId=1501413831&schoolId=62bc63afc672252aaf556025&classId=634954228db9004e80e00d9f,191.100000,0.000000,22,23,23,27,29,33,39,49,73,73,73,4694,0,22,23.90115040477205,14,133,0.0
1675447893,100,,Aggregated,191.100000,0.000000,22,23,23,27,29,33,39,49,73,73,73,4694,0,22,23.90115040477205,14,133,0.0
1675447894,100,GET,/de/hybridapi/v3/homework_timespent_by_content?homeworkId=63846ff066125267cf3fe396&userId=1501413831&schoolId=62bc63afc672252aaf556025&classId=634954228db9004e80e00d9f,191.400000,0.000000,22,23,23,27,28,33,39,50,73,73,73,4880,0,22,23.83565573770492,14,133,0.0
1675447894,100,,Aggregated,191.400000,0.000000,22,23,23,27,28,33,39,50,73,73,73,4880,0,22,23.83565573770492,14,133,0.0
1675447895,100,GET,/de/hybridapi/v3/homework_timespent_by_content?homeworkId=63846ff066125267cf3fe396&userId=1501413831&schoolId=62bc63afc672252aaf556025&classId=634954228db9004e80e00d9f,191.400000,0.000000,22,23,24,27,28,33,39,50,73,73,73,5070,0,22,23.776331360946745,14,133,0.0
1675447895,100,,Aggregated,191.400000,0.000000,22,23,24,27,28,33,39,50,73,73,73,5070,0,22,23.776331360946745,14,133,0.0
1675447896,100,GET,/de/hybridapi/v3/homework_timespent_by_content?homeworkId=63846ff066125267cf3fe396&userId=1501413831&schoolId=62bc63afc672252aaf556025&classId=634954228db9004e80e00d9f,191.200000,0.000000,22,23,24,27,29,34,39,45,73,73,73,5259,0,22,23.735691196044876,14,133,0.0
1675447896,100,,Aggregated,191.200000,0.000000,22,23,24,27,29,34,39,45,73,73,73,5259,0,22,23.735691196044876,14,133,0.0
1675447897,100,GET,/de/hybridapi/v3/homework_timespent_by_content?homeworkId=63846ff066125267cf3fe396&userId=1501413831&schoolId=62bc63afc672252aaf556025&classId=634954228db9004e80e00d9f,190.700000,0.000000,22,23,24,27,29,34,40,45,73,73,73,5458,0,22,23.672407475265665,14,133,0.0
1675447897,100,,Aggregated,190.700000,0.000000,22,23,24,27,29,34,40,45,73,73,73,5458,0,22,23.672407475265665,14,133,0.0
1675447898,100,GET,/de/hybridapi/v3/homework_timespent_by_content?homeworkId=63846ff066125267cf3fe396&userId=1501413831&schoolId=62bc63afc672252aaf556025&classId=634954228db9004e80e00d9f,191.600000,0.000000,22,23,24,27,29,34,39,45,73,73,73,5639,0,22,23.613761305195958,14,133,0.0
1675447898,100,,Aggregated,191.600000,0.000000,22,23,24,27,29,34,39,45,73,73,73,5639,0,22,23.613761305195958,14,133,0.0
1675447899,100,GET,/de/hybridapi/v3/homework_timespent_by_content?homeworkId=63846ff066125267cf3fe396&userId=1501413831&schoolId=62bc63afc672252aaf556025&classId=634954228db9004e80e00d9f,190.300000,0.000000,22,23,24,27,29,34,45,56,73,76,76,5846,0,22,23.685254875128294,14,133,0.0
1675447899,100,,Aggregated,190.300000,0.000000,22,23,24,27,29,34,45,56,73,76,76,5846,0,22,23.685254875128294,14,133,0.0
1675447900,100,GET,/de/hybridapi/v3/homework_timespent_by_content?homeworkId=63846ff066125267cf3fe396&userId=1501413831&schoolId=62bc63afc672252aaf556025&classId=634954228db9004e80e00d9f,191.900000,0.000000,22,23,24,27,29,34,49,59,92,97,97,6033,0,22,23.698988894414057,14,133,0.0
1675447900,100,,Aggregated,191.900000,0.000000,22,23,24,27,29,34,49,59,92,97,97,6033,0,22,23.698988894414057,14,133,0.0
1675447901,100,GET,/de/hybridapi/v3/homework_timespent_by_content?homeworkId=63846ff066125267cf3fe396&userId=1501413831&schoolId=62bc63afc672252aaf556025&classId=634954228db9004e80e00d9f,193.300000,0.000000,22,23,24,27,29,35,50,59,92,97,97,6222,0,22,23.687078109932497,14,133,0.0
1675447901,100,,Aggregated,193.300000,0.000000,22,23,24,27,29,35,50,59,92,97,97,6222,0,22,23.687078109932497,14,133,0.0
1675447902,100,GET,/de/hybridapi/v3/homework_timespent_by_content?homeworkId=63846ff066125267cf3fe396&userId=1501413831&schoolId=62bc63afc672252aaf556025&classId=634954228db9004e80e00d9f,192.800000,0.000000,22,23,23,27,29,34,45,59,92,97,97,6412,0,22,23.647379912663755,14,133,0.0
1675447902,100,,Aggregated,192.800000,0.000000,22,23,23,27,29,34,45,59,92,97,97,6412,0,22,23.647379912663755,14,133,0.0
1675447903,100,GET,/de/hybridapi/v3/homework_timespent_by_content?homeworkId=63846ff066125267cf3fe396&userId=1501413831&schoolId=62bc63afc672252aaf556025&classId=634954228db9004e80e00d9f,190.600000,0.000000,22,23,23,27,29,35,52,64,92,97,97,6619,0,22,23.70463816286448,14,133,0.0
1675447903,100,,Aggregated,190.600000,0.000000,22,23,23,27,29,35,52,64,92,97,97,6619,0,22,23.70463816286448,14,133,0.0
1675447904,100,GET,/de/hybridapi/v3/homework_timespent_by_content?homeworkId=63846ff066125267cf3fe396&userId=1501413831&schoolId=62bc63afc672252aaf556025&classId=634954228db9004e80e00d9f,189.800000,0.000000,22,23,23,27,29,36,53,64,92,97,97,6795,0,22,23.64944812362031,14,133,0.0
1675447904,100,,Aggregated,189.800000,0.000000,22,23,23,27,29,36,53,64,92,97,97,6795,0,22,23.64944812362031,14,133,0.0
1675447905,100,GET,/de/hybridapi/v3/homework_timespent_by_content?homeworkId=63846ff066125267cf3fe396&userId=1501413831&schoolId=62bc63afc672252aaf556025&classId=634954228db9004e80e00d9f,190.000000,0.000000,22,23,23,27,29,37,53,67,480,510,510,6993,0,22,23.743314743314745,14,512,0.0
1675447905,100,,Aggregated,190.000000,0.000000,22,23,23,27,29,37,53,67,480,510,510,6993,0,22,23.743314743314745,14,512,0.0
1675447906,100,GET,/de/hybridapi/v3/homework_timespent_by_content?homeworkId=63846ff066125267cf3fe396&userId=1501413831&schoolId=62bc63afc672252aaf556025&classId=634954228db9004e80e00d9f,191.400000,0.000000,22,23,23,27,29,37,55,67,480,510,510,7196,0,22,23.71206225680934,14,512,0.0
1675447906,100,,Aggregated,191.400000,0.000000,22,23,23,27,29,37,55,67,480,510,510,7196,0,22,23.71206225680934,14,512,0.0
1675447907,100,GET,/de/hybridapi/v3/homework_timespent_by_content?homeworkId=63846ff066125267cf3fe396&userId=1501413831&schoolId=62bc63afc672252aaf556025&classId=634954228db9004e80e00d9f,190.700000,0.000000,22,23,23,27,29,38,55,67,480,510,510,7372,0,22,23.658030385241453,14,512,0.0
1675447907,100,,Aggregated,190.700000,0.000000,22,23,23,27,29,38,55,67,480,510,510,7372,0,22,23.658030385241453,14,512,0.0
1675447908,100,GET,/de/hybridapi/v3/homework_timespent_by_content?homeworkId=63846ff066125267cf3fe396&userId=1501413831&schoolId=62bc63afc672252aaf556025&classId=634954228db9004e80e00d9f,190.600000,0.000000,22,23,24,27,29,35,55,65,480,510,510,7568,0,22,23.686707188160675,14,512,0.0
1675447908,100,,Aggregated,190.600000,0.000000,22,23,24,27,29,35,55,65,480,510,510,7568,0,22,23.686707188160675,14,512,0.0
1675447909,100,GET,/de/hybridapi/v3/homework_timespent_by_content?homeworkId=63846ff066125267cf3fe396&userId=1501413831&schoolId=62bc63afc672252aaf556025&classId=634954228db9004e80e00d9f,190.800000,0.000000,22,23,24,27,29,35,56,67,480,510,510,7752,0,22,23.674148606811144,14,512,0.0
1675447909,100,,Aggregated,190.800000,0.000000,22,23,24,27,29,35,56,67,480,510,510,7752,0,22,23.674148606811144,14,512,0.0
1675447910,100,GET,/de/hybridapi/v3/homework_timespent_by_content?homeworkId=63846ff066125267cf3fe396&userId=1501413831&schoolId=62bc63afc672252aaf556025&classId=634954228db9004e80e00d9f,190.700000,0.000000,22,23,24,27,29,35,55,63,480,510,510,7952,0,22,23.62877263581489,14,512,0.0
1675447910,100,,Aggregated,190.700000,0.000000,22,23,24,27,29,35,55,63,480,510,510,7952,0,22,23.62877263581489,14,512,0.0
1675447911,100,GET,/de/hybridapi/v3/homework_timespent_by_content?homeworkId=63846ff066125267cf3fe396&userId=1501413831&schoolId=62bc63afc672252aaf556025&classId=634954228db9004e80e00d9f,190.700000,0.000000,22,23,24,26,29,34,55,63,480,510,510,8121,0,22,23.62221401305258,14,512,0.0
1675447911,100,,Aggregated,190.700000,0.000000,22,23,24,26,29,34,55,63,480,510,510,8121,0,22,23.62221401305258,14,512,0.0
1675447912,100,GET,/de/hybridapi/v3/homework_timespent_by_content?homeworkId=63846ff066125267cf3fe396&userId=1501413831&schoolId=62bc63afc672252aaf556025&classId=634954228db9004e80e00d9f,190.100000,0.000000,22,23,24,25,29,34,46,61,480,510,510,8316,0,22,23.591269841269842,14,512,0.0
1675447912,100,,Aggregated,190.100000,0.000000,22,23,24,25,29,34,46,61,480,510,510,8316,0,22,23.591269841269842,14,512,0.0
1675447913,100,GET,/de/hybridapi/v3/homework_timespent_by_content?homeworkId=63846ff066125267cf3fe396&userId=1501413831&schoolId=62bc63afc672252aaf556025&classId=634954228db9004e80e00d9f,190.500000,0.000000,22,23,24,27,29,34,47,63,480,510,510,8508,0,22,23.620709920075225,14,512,0.0
1675447913,100,,Aggregated,190.500000,0.000000,22,23,24,27,29,34,47,63,480,510,510,8508,0,22,23.620709920075225,14,512,0.0
1675447914,100,GET,/de/hybridapi/v3/homework_timespent_by_content?homeworkId=63846ff066125267cf3fe396&userId=1501413831&schoolId=62bc63afc672252aaf556025&classId=634954228db9004e80e00d9f,187.800000,0.000000,22,23,24,27,29,34,47,62,76,86,86,8688,0,22,23.593232044198896,14,512,0.0
1675447914,100,,Aggregated,187.800000,0.000000,22,23,24,27,29,34,47,62,76,86,86,8688,0,22,23.593232044198896,14,512,0.0
1675447915,100,GET,/de/hybridapi/v3/homework_timespent_by_content?homeworkId=63846ff066125267cf3fe396&userId=1501413831&schoolId=62bc63afc672252aaf556025&classId=634954228db9004e80e00d9f,190.400000,0.000000,22,23,24,25,29,35,47,62,76,86,86,8883,0,22,23.57480580884836,14,512,0.0
1675447915,100,,Aggregated,190.400000,0.000000,22,23,24,25,29,35,47,62,76,86,86,8883,0,22,23.57480580884836,14,512,0.0
1675447916,100,GET,/de/hybridapi/v3/homework_timespent_by_content?homeworkId=63846ff066125267cf3fe396&userId=1501413831&schoolId=62bc63afc672252aaf556025&classId=634954228db9004e80e00d9f,189.300000,0.000000,22,23,24,27,29,35,52,63,76,86,86,9069,0,22,23.584628955783437,14,512,0.0
1675447916,100,,Aggregated,189.300000,0.000000,22,23,24,27,29,35,52,63,76,86,86,9069,0,22,23.584628955783437,14,512,0.0
1675447917,100,GET,/de/hybridapi/v3/homework_timespent_by_content?homeworkId=63846ff066125267cf3fe396&userId=1501413831&schoolId=62bc63afc672252aaf556025&classId=634954228db9004e80e00d9f,189.700000,0.000000,22,23,24,27,30,36,56,63,76,86,86,9262,0,22,23.578600734182682,14,512,0.0
1675447917,100,,Aggregated,189.700000,0.000000,22,23,24,27,30,36,56,63,76,86,86,9262,0,22,23.578600734182682,14,512,0.0
1675447918,100,GET,/de/hybridapi/v3/homework_timespent_by_content?homeworkId=63846ff066125267cf3fe396&userId=1501413831&schoolId=62bc63afc672252aaf556025&classId=634954228db9004e80e00d9f,189.400000,0.000000,22,23,24,25,30,36,54,62,76,86,86,9451,0,22,23.563961485557083,14,512,0.0
1675447918,100,,Aggregated,189.400000,0.000000,22,23,24,25,30,36,54,62,76,86,86,9451,0,22,23.563961485557083,14,512,0.0
1675447919,100,GET,/de/hybridapi/v3/homework_timespent_by_content?homeworkId=63846ff066125267cf3fe396&userId=1501413831&schoolId=62bc63afc672252aaf556025&classId=634954228db9004e80e00d9f,188.600000,0.000000,22,23,24,26,30,36,49,59,76,86,86,9658,0,22,23.552081176226963,14,512,0.0
1675447919,100,,Aggregated,188.600000,0.000000,22,23,24,26,30,36,49,59,76,86,86,9658,0,22,23.552081176226963,14,512,0.0
1675447920,100,GET,/de/hybridapi/v3/homework_timespent_by_content?homeworkId=63846ff066125267cf3fe396&userId=1501413831&schoolId=62bc63afc672252aaf556025&classId=634954228db9004e80e00d9f,188.200000,0.000000,23,24,24,27,30,36,52,61,75,86,86,9843,0,22,23.561007822818247,12,512,0.0
1675447920,100,,Aggregated,188.200000,0.000000,23,24,24,27,30,36,52,61,75,86,86,9843,0,22,23.561007822818247,12,512,0.0
1675447921,100,GET,/de/hybridapi/v3/homework_timespent_by_content?homeworkId=63846ff066125267cf3fe396&userId=1501413831&schoolId=62bc63afc672252aaf556025&classId=634954228db9004e80e00d9f,188.500000,0.000000,23,24,25,28,30,37,55,62,76,86,86,10046,0,22,23.609496316942067,12,512,0.0
1675447921,100,,Aggregated,188.500000,0.000000,23,24,25,28,30,37,55,62,76,86,86,10046,0,22,23.609496316942067,12,512,0.0
1675447922,100,GET,/de/hybridapi/v3/homework_timespent_by_content?homeworkId=63846ff066125267cf3fe396&userId=1501413831&schoolId=62bc63afc672252aaf556025&classId=634954228db9004e80e00d9f,189.500000,0.000000,22,24,25,28,30,37,56,62,86,89,89,10235,0,22,23.596775769418663,12,512,0.0
1675447922,100,,Aggregated,189.500000,0.000000,22,24,25,28,30,37,56,62,86,89,89,10235,0,22,23.596775769418663,12,512,0.0
1675447923,100,GET,/de/hybridapi/v3/homework_timespent_by_content?homeworkId=63846ff066125267cf3fe396&userId=1501413831&schoolId=62bc63afc672252aaf556025&classId=634954228db9004e80e00d9f,190.400000,0.000000,22,24,25,27,31,37,56,61,82,89,89,10434,0,22,23.608395629672227,12,512,0.0
1675447923,100,,Aggregated,190.400000,0.000000,22,24,25,27,31,37,56,61,82,89,89,10434,0,22,23.608395629672227,12,512,0.0
1675447924,100,GET,/de/hybridapi/v3/homework_timespent_by_content?homeworkId=63846ff066125267cf3fe396&userId=1501413831&schoolId=62bc63afc672252aaf556025&classId=634954228db9004e80e00d9f,192.900000,0.000000,23,24,25,28,31,42,57,62,82,89,89,10632,0,22,23.6640331075997,12,512,0.0
1675447924,100,,Aggregated,192.900000,0.000000,23,24,25,28,31,42,57,62,82,89,89,10632,0,22,23.6640331075997,12,512,0.0
1675447925,100,GET,/de/hybridapi/v3/homework_timespent_by_content?homeworkId=63846ff066125267cf3fe396&userId=1501413831&schoolId=62bc63afc672252aaf556025&classId=634954228db9004e80e00d9f,190.200000,0.000000,23,24,25,28,32,47,57,63,82,89,89,10821,0,22,23.670270769799465,12,512,0.0
1675447925,100,,Aggregated,190.200000,0.000000,23,24,25,28,32,47,57,63,82,89,89,10821,0,22,23.670270769799465,12,512,0.0
1675447926,100,GET,/de/hybridapi/v3/homework_timespent_by_content?homeworkId=63846ff066125267cf3fe396&userId=1501413831&schoolId=62bc63afc672252aaf556025&classId=634954228db9004e80e00d9f,191.700000,0.000000,23,24,25,27,32,48,58,63,82,89,89,11002,0,22,23.659970914379205,12,512,0.0
1675447926,100,,Aggregated,191.700000,0.000000,23,24,25,27,32,48,58,63,82,89,89,11002,0,22,23.659970914379205,12,512,0.0
1675447927,100,GET,/de/hybridapi/v3/homework_timespent_by_content?homeworkId=63846ff066125267cf3fe396&userId=1501413831&schoolId=62bc63afc672252aaf556025&classId=634954228db9004e80e00d9f,192.700000,0.000000,23,24,25,26,31,44,57,62,82,89,89,11204,0,22,23.642002856122815,12,512,0.0
1675447927,100,,Aggregated,192.700000,0.000000,23,24,25,26,31,44,57,62,82,89,89,11204,0,22,23.642002856122815,12,512,0.0
1675447928,100,GET,/de/hybridapi/v3/homework_timespent_by_content?homeworkId=63846ff066125267cf3fe396&userId=1501413831&schoolId=62bc63afc672252aaf556025&classId=634954228db9004e80e00d9f,192.700000,0.000000,23,24,25,26,31,42,57,62,82,89,89,11378,0,22,23.618474248549834,12,512,0.0
1675447928,100,,Aggregated,192.700000,0.000000,23,24,25,26,31,42,57,62,82,89,89,11378,0,22,23.618474248549834,12,512,0.0
1675447929,100,GET,/de/hybridapi/v3/homework_timespent_by_content?homeworkId=63846ff066125267cf3fe396&userId=1501413831&schoolId=62bc63afc672252aaf556025&classId=634954228db9004e80e00d9f,192.500000,0.000000,23,24,25,27,31,40,57,62,82,89,89,11586,0,22,23.60365958915933,12,512,0.0
1675447929,100,,Aggregated,192.500000,0.000000,23,24,25,27,31,40,57,62,82,89,89,11586,0,22,23.60365958915933,12,512,0.0
1675447930,100,GET,/de/hybridapi/v3/homework_timespent_by_content?homeworkId=63846ff066125267cf3fe396&userId=1501413831&schoolId=62bc63afc672252aaf556025&classId=634954228db9004e80e00d9f,192.400000,0.000000,23,24,25,27,31,38,57,61,82,89,89,11777,0,22,23.587416150123122,12,512,0.0
1675447930,100,,Aggregated,192.400000,0.000000,23,24,25,27,31,38,57,61,82,89,89,11777,0,22,23.587416150123122,12,512,0.0
1675447931,100,GET,/de/hybridapi/v3/homework_timespent_by_content?homeworkId=63846ff066125267cf3fe396&userId=1501413831&schoolId=62bc63afc672252aaf556025&classId=634954228db9004e80e00d9f,191.500000,0.000000,22,24,24,26,30,36,57,62,89,91,91,11950,0,22,23.57355648535565,12,512,0.0
1675447931,100,,Aggregated,191.500000,0.000000,22,24,24,26,30,36,57,62,89,91,91,11950,0,22,23.57355648535565,12,512,0.0
1675447932,100,GET,/de/hybridapi/v3/homework_timespent_by_content?homeworkId=63846ff066125267cf3fe396&userId=1501413831&schoolId=62bc63afc672252aaf556025&classId=634954228db9004e80e00d9f,192.300000,0.000000,23,24,25,26,31,37,59,66,120,120,120,12157,0,22,23.63107674590771,12,512,0.0
1675447932,100,,Aggregated,192.300000,0.000000,23,24,25,26,31,37,59,66,120,120,120,12157,0,22,23.63107674590771,12,512,0.0
1675447933,100,GET,/de/hybridapi/v3/homework_timespent_by_content?homeworkId=63846ff066125267cf3fe396&userId=1501413831&schoolId=62bc63afc672252aaf556025&classId=634954228db9004e80e00d9f,190.400000,0.000000,23,23,24,26,30,35,57,65,120,120,120,12349,0,22,23.607741517531785,12,512,0.0
1675447933,100,,Aggregated,190.400000,0.000000,23,23,24,26,30,35,57,65,120,120,120,12349,0,22,23.607741517531785,12,512,0.0
1675447934,100,GET,/de/hybridapi/v3/homework_timespent_by_content?homeworkId=63846ff066125267cf3fe396&userId=1501413831&schoolId=62bc63afc672252aaf556025&classId=634954228db9004e80e00d9f,190.900000,0.000000,23,23,24,26,29,34,53,64,120,120,120,12536,0,22,23.60513720485003,12,512,0.0
1675447934,100,,Aggregated,190.900000,0.000000,23,23,24,26,29,34,53,64,120,120,120,12536,0,22,23.60513720485003,12,512,0.0
1675447935,100,GET,/de/hybridapi/v3/homework_timespent_by_content?homeworkId=63846ff066125267cf3fe396&userId=1501413831&schoolId=62bc63afc672252aaf556025&classId=634954228db9004e80e00d9f,191.500000,0.000000,23,23,24,25,29,34,46,64,120,120,120,12740,0,22,23.580298273155417,12,512,0.0
1675447935,100,,Aggregated,191.500000,0.000000,23,23,24,25,29,34,46,64,120,120,120,12740,0,22,23.580298273155417,12,512,0.0
1675447936,100,GET,/de/hybridapi/v3/homework_timespent_by_content?homeworkId=63846ff066125267cf3fe396&userId=1501413831&schoolId=62bc63afc672252aaf556025&classId=634954228db9004e80e00d9f,190.100000,0.000000,23,23,24,26,29,34,46,62,120,120,120,12930,0,22,23.581747873163188,12,512,0.0
1675447936,100,,Aggregated,190.100000,0.000000,23,23,24,26,29,34,46,62,120,120,120,12930,0,22,23.581747873163188,12,512,0.0
1675447937,100,GET,/de/hybridapi/v3/homework_timespent_by_content?homeworkId=63846ff066125267cf3fe396&userId=1501413831&schoolId=62bc63afc672252aaf556025&classId=634954228db9004e80e00d9f,189.900000,0.000000,23,23,24,28,30,35,46,59,120,120,120,13137,0,22,23.588490522950444,12,512,0.0
1675447937,100,,Aggregated,189.900000,0.000000,23,23,24,28,30,35,46,59,120,120,120,13137,0,22,23.588490522950444,12,512,0.0
1675447938,100,GET,/de/hybridapi/v3/homework_timespent_by_content?homeworkId=63846ff066125267cf3fe396&userId=1501413831&schoolId=62bc63afc672252aaf556025&classId=634954228db9004e80e00d9f,191.400000,0.000000,23,23,24,28,30,35,43,59,120,120,120,13322,0,22,23.577540909773308,12,512,0.0
1675447938,100,,Aggregated,191.400000,0.000000,23,23,24,28,30,35,43,59,120,120,120,13322,0,22,23.577540909773308,12,512,0.0
1675447939,100,GET,/de/hybridapi/v3/homework_timespent_by_content?homeworkId=63846ff066125267cf3fe396&userId=1501413831&schoolId=62bc63afc672252aaf556025&classId=634954228db9004e80e00d9f,191.900000,0.000000,23,23,24,28,30,35,45,59,120,120,120,13515,0,22,23.551239363669996,12,512,0.0
1675447939,100,,Aggregated,191.900000,0.000000,23,23,24,28,30,35,45,59,120,120,120,13515,0,22,23.551239363669996,12,512,0.0
1675447940,100,GET,/de/hybridapi/v3/homework_timespent_by_content?homeworkId=63846ff066125267cf3fe396&userId=1501413831&schoolId=62bc63afc672252aaf556025&classId=634954228db9004e80e00d9f,192.400000,0.000000,23,23,24,28,30,35,45,59,120,120,120,13702,0,22,23.533425777258795,12,512,0.0
1675447940,100,,Aggregated,192.400000,0.000000,23,23,24,28,30,35,45,59,120,120,120,13702,0,22,23.533425777258795,12,512,0.0
1675447941,100,GET,/de/hybridapi/v3/homework_timespent_by_content?homeworkId=63846ff066125267cf3fe396&userId=1501413831&schoolId=62bc63afc672252aaf556025&classId=634954228db9004e80e00d9f,193.000000,0.000000,23,23,24,28,30,35,43,57,120,120,120,13888,0,22,23.51764112903226,12,512,0.0
1675447941,100,,Aggregated,193.000000,0.000000,23,23,24,28,30,35,43,57,120,120,120,13888,0,22,23.51764112903226,12,512,0.0
1675447942,100,GET,/de/hybridapi/v3/homework_timespent_by_content?homeworkId=63846ff066125267cf3fe396&userId=1501413831&schoolId=62bc63afc672252aaf556025&classId=634954228db9004e80e00d9f,191.600000,0.000000,23,23,24,28,30,35,40,46,82,96,96,14083,0,22,23.514805084144005,12,512,0.0
1675447942,100,,Aggregated,191.600000,0.000000,23,23,24,28,30,35,40,46,82,96,96,14083,0,22,23.514805084144005,12,512,0.0
1675447943,100,GET,/de/hybridapi/v3/homework_timespent_by_content?homeworkId=63846ff066125267cf3fe396&userId=1501413831&schoolId=62bc63afc672252aaf556025&classId=634954228db9004e80e00d9f,193.200000,0.000000,23,23,24,28,29,35,40,46,82,96,96,14274,0,22,23.490332072299285,12,512,0.0
1675447943,100,,Aggregated,193.200000,0.000000,23,23,24,28,29,35,40,46,82,96,96,14274,0,22,23.490332072299285,12,512,0.0
1675447944,100,GET,/de/hybridapi/v3/homework_timespent_by_content?homeworkId=63846ff066125267cf3fe396&userId=1501413831&schoolId=62bc63afc672252aaf556025&classId=634954228db9004e80e00d9f,191.200000,0.000000,23,23,24,28,30,34,40,46,82,96,96,14467,0,22,23.481855256791317,12,512,0.0
1675447944,100,,Aggregated,191.200000,0.000000,23,23,24,28,30,34,40,46,82,96,96,14467,0,22,23.481855256791317,12,512,0.0
1675447945,100,GET,/de/hybridapi/v3/homework_timespent_by_content?homeworkId=63846ff066125267cf3fe396&userId=1501413831&schoolId=62bc63afc672252aaf556025&classId=634954228db9004e80e00d9f,192.100000,0.000000,23,23,24,28,30,35,41,46,65,82,82,14666,0,22,23.494817946270285,12,512,0.0
1675447945,100,,Aggregated,192.100000,0.000000,23,23,24,28,30,35,41,46,65,82,82,14666,0,22,23.494817946270285,12,512,0.0
1675447946,100,GET,/de/hybridapi/v3/homework_timespent_by_content?homeworkId=63846ff066125267cf3fe396&userId=1501413831&schoolId=62bc63afc672252aaf556025&classId=634954228db9004e80e00d9f,192.100000,0.000000,23,23,24,27,29,34,40,45,63,82,82,14847,0,22,23.47854785478548,12,512,0.0
1675447946,100,,Aggregated,192.100000,0.000000,23,23,24,27,29,34,40,45,63,82,82,14847,0,22,23.47854785478548,12,512,0.0
1675447947,100,GET,/de/hybridapi/v3/homework_timespent_by_content?homeworkId=63846ff066125267cf3fe396&userId=1501413831&schoolId=62bc63afc672252aaf556025&classId=634954228db9004e80e00d9f,191.900000,0.000000,23,23,24,25,29,34,38,42,63,82,82,15037,0,22,23.457604575380728,12,512,0.0
1675447947,100,,Aggregated,191.900000,0.000000,23,23,24,25,29,34,38,42,63,82,82,15037,0,22,23.457604575380728,12,512,0.0
1675447948,100,GET,/de/hybridapi/v3/homework_timespent_by_content?homeworkId=63846ff066125267cf3fe396&userId=1501413831&schoolId=62bc63afc672252aaf556025&classId=634954228db9004e80e00d9f,191.200000,0.000000,23,23,24,24,29,34,39,44,63,82,82,15220,0,22,23.44783180026281,12,512,0.0
1675447948,100,,Aggregated,191.200000,0.000000,23,23,24,24,29,34,39,44,63,82,82,15220,0,22,23.44783180026281,12,512,0.0
1675447949,100,GET,/de/hybridapi/v3/homework_timespent_by_content?homeworkId=63846ff066125267cf3fe396&userId=1501413831&schoolId=62bc63afc672252aaf556025&classId=634954228db9004e80e00d9f,190.800000,0.000000,23,23,24,24,29,34,39,44,63,82,82,15408,0,22,23.42744029075805,12,512,0.0
1675447949,100,,Aggregated,190.800000,0.000000,23,23,24,24,29,34,39,44,63,82,82,15408,0,22,23.42744029075805,12,512,0.0
1675447950,100,GET,/de/hybridapi/v3/homework_timespent_by_content?homeworkId=63846ff066125267cf3fe396&userId=1501413831&schoolId=62bc63afc672252aaf556025&classId=634954228db9004e80e00d9f,189.300000,0.000000,23,23,24,25,29,33,38,44,57,63,63,15593,0,22,23.417495029821072,12,512,0.0
1675447950,100,,Aggregated,189.300000,0.000000,23,23,24,25,29,33,38,44,57,63,63,15593,0,22,23.417495029821072,12,512,0.0
1675447951,100,GET,/de/hybridapi/v3/homework_timespent_by_content?homeworkId=63846ff066125267cf3fe396&userId=1501413831&schoolId=62bc63afc672252aaf556025&classId=634954228db9004e80e00d9f,188.600000,0.000000,23,23,24,25,29,34,40,45,63,83,83,15780,0,22,23.403231939163497,12,512,0.0
1675447951,100,,Aggregated,188.600000,0.000000,23,23,24,25,29,34,40,45,63,83,83,15780,0,22,23.403231939163497,12,512,0.0
1675447952,100,GET,/de/hybridapi/v3/homework_timespent_by_content?homeworkId=63846ff066125267cf3fe396&userId=1501413831&schoolId=62bc63afc672252aaf556025&classId=634954228db9004e80e00d9f,188.000000,0.000000,23,23,24,24,29,34,40,46,83,90,90,15983,0,22,23.40098855033473,12,512,0.0
1675447952,100,,Aggregated,188.000000,0.000000,23,23,24,24,29,34,40,46,83,90,90,15983,0,22,23.40098855033473,12,512,0.0
1675447953,100,GET,/de/hybridapi/v3/homework_timespent_by_content?homeworkId=63846ff066125267cf3fe396&userId=1501413831&schoolId=62bc63afc672252aaf556025&classId=634954228db9004e80e00d9f,188.400000,0.000000,23,23,24,24,29,33,40,46,83,90,90,16182,0,22,23.379063156593745,12,512,0.0
1675447953,100,,Aggregated,188.400000,0.000000,23,23,24,24,29,33,40,46,83,90,90,16182,0,22,23.379063156593745,12,512,0.0
1675447954,100,GET,/de/hybridapi/v3/homework_timespent_by_content?homeworkId=63846ff066125267cf3fe396&userId=1501413831&schoolId=62bc63afc672252aaf556025&classId=634954228db9004e80e00d9f,188.700000,0.000000,23,23,24,24,29,31,37,46,83,90,90,16354,0,22,23.3587501528678,12,512,0.0
1675447954,100,,Aggregated,188.700000,0.000000,23,23,24,24,29,31,37,46,83,90,90,16354,0,22,23.3587501528678,12,512,0.0
1675447955,100,GET,/de/hybridapi/v3/homework_timespent_by_content?homeworkId=63846ff066125267cf3fe396&userId=1501413831&schoolId=62bc63afc672252aaf556025&classId=634954228db9004e80e00d9f,188.700000,0.000000,23,23,24,24,29,30,35,41,83,90,90,16544,0,22,23.338733075435204,12,512,0.0
1675447955,100,,Aggregated,188.700000,0.000000,23,23,24,24,29,30,35,41,83,90,90,16544,0,22,23.338733075435204,12,512,0.0
1675447956,100,GET,/de/hybridapi/v3/homework_timespent_by_content?homeworkId=63846ff066125267cf3fe396&userId=1501413831&schoolId=62bc63afc672252aaf556025&classId=634954228db9004e80e00d9f,189.600000,0.000000,23,23,24,24,29,30,36,45,83,90,90,16717,0,22,23.3322366453311,12,512,0.0
1675447956,100,,Aggregated,189.600000,0.000000,23,23,24,24,29,30,36,45,83,90,90,16717,0,22,23.3322366453311,12,512,0.0
1675447957,100,GET,/de/hybridapi/v3/homework_timespent_by_content?homeworkId=63846ff066125267cf3fe396&userId=1501413831&schoolId=62bc63afc672252aaf556025&classId=634954228db9004e80e00d9f,187.800000,0.000000,23,23,24,24,29,30,36,45,83,90,90,16914,0,22,23.316542509164005,12,512,0.0
1675447957,100,,Aggregated,187.800000,0.000000,23,23,24,24,29,30,36,45,83,90,90,16914,0,22,23.316542509164005,12,512,0.0
1675447958,100,GET,/de/hybridapi/v3/homework_timespent_by_content?homeworkId=63846ff066125267cf3fe396&userId=1501413831&schoolId=62bc63afc672252aaf556025&classId=634954228db9004e80e00d9f,187.400000,0.000000,22,23,24,24,29,30,36,45,83,90,90,17113,0,22,23.298135920060773,12,512,0.0
1675447958,100,,Aggregated,187.400000,0.000000,22,23,24,24,29,30,36,45,83,90,90,17113,0,22,23.298135920060773,12,512,0.0
1675447959,100,GET,/de/hybridapi/v3/homework_timespent_by_content?homeworkId=63846ff066125267cf3fe396&userId=1501413831&schoolId=62bc63afc672252aaf556025&classId=634954228db9004e80e00d9f,186.800000,0.000000,22,23,24,24,29,31,36,45,83,90,90,17306,0,22,23.274817982202705,12,512,0.0
1675447959,100,,Aggregated,186.800000,0.000000,22,23,24,24,29,31,36,45,83,90,90,17306,0,22,23.274817982202705,12,512,0.0
1675447960,100,GET,/de/hybridapi/v3/homework_timespent_by_content?homeworkId=63846ff066125267cf3fe396&userId=1501413831&schoolId=62bc63afc672252aaf556025&classId=634954228db9004e80e00d9f,187.100000,0.000000,22,23,24,24,29,30,36,42,83,90,90,17488,0,22,23.25526075022873,12,512,0.0
1675447960,100,,Aggregated,187.100000,0.000000,22,23,24,24,29,30,36,42,83,90,90,17488,0,22,23.25526075022873,12,512,0.0
1675447961,100,GET,/de/hybridapi/v3/homework_timespent_by_content?homeworkId=63846ff066125267cf3fe396&userId=1501413831&schoolId=62bc63afc672252aaf556025&classId=634954228db9004e80e00d9f,188.900000,0.000000,22,23,24,24,29,30,36,41,81,90,90,17664,0,22,23.246773097826086,12,512,0.0
1675447961,100,,Aggregated,188.900000,0.000000,22,23,24,24,29,30,36,41,81,90,90,17664,0,22,23.246773097826086,12,512,0.0
1675447962,100,GET,/de/hybridapi/v3/homework_timespent_by_content?homeworkId=63846ff066125267cf3fe396&userId=1501413831&schoolId=62bc63afc672252aaf556025&classId=634954228db9004e80e00d9f,189.500000,0.000000,22,23,24,24,29,30,35,39,73,81,81,17842,0,22,23.224470350857526,12,512,0.0
1675447962,100,,Aggregated,189.500000,0.000000,22,23,24,24,29,30,35,39,73,81,81,17842,0,22,23.224470350857526,12,512,0.0
1675447964,100,GET,/de/hybridapi/v3/homework_timespent_by_content?homeworkId=63846ff066125267cf3fe396&userId=1501413831&schoolId=62bc63afc672252aaf556025&classId=634954228db9004e80e00d9f,188.100000,0.000000,22,23,24,24,29,30,35,40,65,68,68,18031,0,22,23.212411957184848,12,512,0.0
1675447964,100,,Aggregated,188.100000,0.000000,22,23,24,24,29,30,35,40,65,68,68,18031,0,22,23.212411957184848,12,512,0.0
1675447965,100,GET,/de/hybridapi/v3/homework_timespent_by_content?homeworkId=63846ff066125267cf3fe396&userId=1501413831&schoolId=62bc63afc672252aaf556025&classId=634954228db9004e80e00d9f,185.600000,0.000000,22,23,24,24,29,30,35,41,65,68,68,18223,0,22,23.191900345716952,12,512,0.0
1675447965,100,,Aggregated,185.600000,0.000000,22,23,24,24,29,30,35,41,65,68,68,18223,0,22,23.191900345716952,12,512,0.0
1675447966,100,GET,/de/hybridapi/v3/homework_timespent_by_content?homeworkId=63846ff066125267cf3fe396&userId=1501413831&schoolId=62bc63afc672252aaf556025&classId=634954228db9004e80e00d9f,184.600000,0.000000,22,23,24,24,29,30,35,38,58,68,68,18411,0,22,23.175275650426375,12,512,0.0
1675447966,100,,Aggregated,184.600000,0.000000,22,23,24,24,29,30,35,38,58,68,68,18411,0,22,23.175275650426375,12,512,0.0
1675447967,100,GET,/de/hybridapi/v3/homework_timespent_by_content?homeworkId=63846ff066125267cf3fe396&userId=1501413831&schoolId=62bc63afc672252aaf556025&classId=634954228db9004e80e00d9f,186.400000,0.000000,22,23,24,24,29,30,35,41,61,68,68,18592,0,22,23.1756669535284,12,512,0.0
1675447967,100,,Aggregated,186.400000,0.000000,22,23,24,24,29,30,35,41,61,68,68,18592,0,22,23.1756669535284,12,512,0.0
1675447968,100,GET,/de/hybridapi/v3/homework_timespent_by_content?homeworkId=63846ff066125267cf3fe396&userId=1501413831&schoolId=62bc63afc672252aaf556025&classId=634954228db9004e80e00d9f,185.900000,0.000000,22,23,24,24,29,30,36,42,65,68,68,18783,0,22,23.159346217324178,12,512,0.0
1675447968,100,,Aggregated,185.900000,0.000000,22,23,24,24,29,30,36,42,65,68,68,18783,0,22,23.159346217324178,12,512,0.0
1675447969,100,GET,/de/hybridapi/v3/homework_timespent_by_content?homeworkId=63846ff066125267cf3fe396&userId=1501413831&schoolId=62bc63afc672252aaf556025&classId=634954228db9004e80e00d9f,186.100000,0.000000,22,23,24,24,29,30,36,46,68,70,70,18970,0,22,23.14406958355298,12,512,0.0
1675447969,100,,Aggregated,186.100000,0.000000,22,23,24,24,29,30,36,46,68,70,70,18970,0,22,23.14406958355298,12,512,0.0
1675447970,100,GET,/de/hybridapi/v3/homework_timespent_by_content?homeworkId=63846ff066125267cf3fe396&userId=1501413831&schoolId=62bc63afc672252aaf556025&classId=634954228db9004e80e00d9f,186.000000,0.000000,22,23,24,24,29,30,37,54,65,70,70,19160,0,22,23.145824634655533,12,512,0.0
1675447970,100,,Aggregated,186.000000,0.000000,22,23,24,24,29,30,37,54,65,70,70,19160,0,22,23.145824634655533,12,512,0.0
1675447971,100,GET,/de/hybridapi/v3/homework_timespent_by_content?homeworkId=63846ff066125267cf3fe396&userId=1501413831&schoolId=62bc63afc672252aaf556025&classId=634954228db9004e80e00d9f,184.900000,0.000000,22,23,24,24,29,30,37,55,65,70,70,19350,0,22,23.14666666666667,12,512,0.0
1675447971,100,,Aggregated,184.900000,0.000000,22,23,24,24,29,30,37,55,65,70,70,19350,0,22,23.14666666666667,12,512,0.0
1675447972,100,GET,/de/hybridapi/v3/homework_timespent_by_content?homeworkId=63846ff066125267cf3fe396&userId=1501413831&schoolId=62bc63afc672252aaf556025&classId=634954228db9004e80e00d9f,184.900000,0.000000,22,23,24,24,29,32,41,56,68,70,70,19537,0,22,23.145160464759176,12,512,0.0
1675447972,100,,Aggregated,184.900000,0.000000,22,23,24,24,29,32,41,56,68,70,70,19537,0,22,23.145160464759176,12,512,0.0
1675447973,100,GET,/de/hybridapi/v3/homework_timespent_by_content?homeworkId=63846ff066125267cf3fe396&userId=1501413831&schoolId=62bc63afc672252aaf556025&classId=634954228db9004e80e00d9f,185.500000,0.000000,22,23,24,24,29,32,48,56,68,70,70,19722,0,22,23.15363553392151,12,512,0.0
1675447973,100,,Aggregated,185.500000,0.000000,22,23,24,24,29,32,48,56,68,70,70,19722,0,22,23.15363553392151,12,512,0.0
1675447974,100,GET,/de/hybridapi/v3/homework_timespent_by_content?homeworkId=63846ff066125267cf3fe396&userId=1501413831&schoolId=62bc63afc672252aaf556025&classId=634954228db9004e80e00d9f,186.400000,0.000000,22,23,24,25,30,34,53,60,71,79,79,19908,0,22,23.164908579465543,12,512,0.0
1675447974,100,,Aggregated,186.400000,0.000000,22,23,24,25,30,34,53,60,71,79,79,19908,0,22,23.164908579465543,12,512,0.0
1675447975,100,GET,/de/hybridapi/v3/homework_timespent_by_content?homeworkId=63846ff066125267cf3fe396&userId=1501413831&schoolId=62bc63afc672252aaf556025&classId=634954228db9004e80e00d9f,187.100000,0.000000,23,24,24,25,30,36,55,61,75,79,79,20093,0,22,23.18130692280894,12,512,0.0
1675447975,100,,Aggregated,187.100000,0.000000,23,24,24,25,30,36,55,61,75,79,79,20093,0,22,23.18130692280894,12,512,0.0
