Type,Name,Request Count,Failure Count,Median Response Time,Average Response Time,Min Response Time,Max Response Time,Average Content Size,Requests/s,Failures/s,50%,66%,75%,80%,90%,95%,98%,99%,99.9%,99.99%,100%
GET,/de/hybridapi/v3/homework_behaviour?homeworkId=63846ff066125267cf3fe396&userId=1501413831&schoolId=62bc63afc672252aaf556025&classId=634954228db9004e80e00d9f,7530,50,350,819.4665338645418,65,60080,46.687915006640104,63.41719343185359,0.42109690193793886,350,480,560,620,810,990,1300,1600,60000,60000,60000
,Aggregated,7530,50,350,819.4665338645418,65,60080,46.687915006640104,63.41719343185359,0.42109690193793886,350,480,560,620,810,990,1300,1600,60000,60000,60000
