Goal code,Exam Code
kve97670,kve99562
kve97670,kve100245
kve97670,kve101426
kve97670,kve99731
kve97670,kve97915
kve97670,kve100513
kve97670,kve97671
kve84464,kve402217
kve84464,kve402423
kve84464,kve402680
kve84464,kve403162
kve84464,kve402834
kve84464,kve403312
kve84464,kve4719623
kve84464,kve400818
kve84464,kve401024
kve84464,kve401302
kve84464,kve401509
kve84464,kve401761
kve84464,kve401964
kve84464,kve599953
kve84464,kve718293
kve84464,kve680551
kve84464,kve718099
kve84464,kve6994893
kve84464,kve600244
kve84464,kve600147
kve84464,kve4050565
kve84464,kve4050717
kve84464,kve598297
kve84464,kve4719724
kve84464,kve6995024
kve84464,kve6994732
kve84464,kve599438
kve383630,kve383631
kve383630,kve431250
kve383630,kve486272
kve383630,kve491487
kve383630,kve635481
kve383630,kve513840
kve383630,kve514713
kve383630,kve646614
kve383630,kve470071
kve383630,kve634620
kve383630,kve675969
kve383630,kve646619
kve383630,kve646636
kve383630,kve729446
kve383630,kve728481
kve383630,kve4190946
kve383630,kve3709494
kve383630,kve4020704
kve265325,kve368602
kve265325,kve369226
kve265325,kve302996
kve265325,kve369394
kve265325,kve265326
kve265325,kve506211
kve265325,kve506905
kve457846,kve479076
kve457846,kve479434
kve457846,kve501362
kve457846,kve501720
kve457846,kve598537
kve457846,kve680453
kve457846,kve680424
kve457846,kve598081
kve457846,kve479792
kve457846,kve680317
kve457846,kve718980
kve457846,kve642371
kve457846,kve457847
kve457846,kve4127892
kve457846,kve4128439
kve457846,kve4128162
kve457846,kve4720067
kve457846,kve6994456
kve385443,kve385437
kve385443,kve487399
kve385443,kve518075
kve385443,kve519118
kve385443,kve727485
kve385443,kve4130585
kve454905,kve480193
kve454905,kve480524
kve454905,kve4127041
kve454905,kve4127307
kve454905,kve4126776
kve454905,kve501081
kve454905,kve500801
kve454905,kve454906
kve676914,kve688061
kve676914,kve686735
kve6572594,kve6572604
kve266383,kve273003
kve266383,kve272810
kve266383,kve272117
kve266383,kve272320
kve266383,kve266384
kve266383,kve289812
kve266383,kve290402
kve456851,kve481049
kve456851,kve500394
kve456851,kve4127573
kve456851,kve717890
kve456851,kve717443
kve456851,kve717066
kve456851,kve717345
kve456851,kve717714
kve456851,kve500133
kve456851,kve456852
kve456851,kve4049232
kve456851,kve4049430
kve456851,kve4049769
kve456851,kve4050038
kve456851,kve4050265
kve456851,kve4127785
kve456851,kve4720325
kve456851,kve599138
kve266089,kve271471
kve266089,kve271673
kve266089,kve271886
kve266089,kve266641
kve266089,kve266090
kve266089,kve288918
kve266089,kve266892
kve372272,kve373056
kve372272,kve373245
kve372272,kve373452
kve372272,kve373736
kve372272,kve374024
kve372272,kve527830
kve372272,kve528398
kve455460,kve480856
kve455460,kve680775
kve455460,kve600050
kve455460,kve718625
kve455460,kve599856
kve455460,kve718439
kve455460,kve500671
kve455460,kve718819
kve455460,kve455461
kve455460,kve4719796
kve455460,kve4719979
kve371341,kve522358
kve371341,kve522541
kve371341,kve522754
kve371341,kve522979
kve371341,kve521046
kve371341,kve521219
kve371341,kve521802
kve64601,kve64602
kve64601,kve225492
kve64601,kve680979
kve64601,kve681911
kve64601,kve681259
kve64601,kve681631
kve4701782,kve4701830
kve516619,kve517132
kve516619,kve517311
kve516619,kve517533
kve516619,kve517740
kve516619,kve517905
kve516619,kve523155
kve516619,kve523738
kve528943,kve528944
kve528943,kve613813
kve528943,kve529567
kve328176,kve328177
kve328176,kve328278
kve328176,kve328364
kve328176,kve328455
kve328176,kve328533
kve328176,kve369994
kve328176,kve370685
kve604546,kve604950
kve604546,kve605043
kve604546,kve605164
kve604546,kve605324
kve604546,kve605484
kve604546,kve640549
kve604546,kve641117
kve666823,kve668985
kve666823,kve669163
kve666823,kve669371
kve666823,kve669589
kve666823,kve666824
kve666823,kve666997
kve666823,kve667565
kve669763,kve671977
kve669763,kve672157
kve669763,kve672330
kve669763,kve672500
kve669763,kve669764
kve669763,kve669987
kve669763,kve670555
kve610366,kve610630
kve610366,kve610804
kve610366,kve610976
kve610366,kve611544
kve612089,kve612353
kve612089,kve612527
kve612089,kve612699
kve612089,kve613267
kve4138333,kve4137203
kve4138333,kve4138211
kve4138333,kve4139652
kve4138333,kve4136696
kve4138333,kve4139676
kve4138333,kve4137603
kve4138333,kve4137354
kve4193902,kve4193273
kve4193902,kve4195422
kve4193902,kve4195780
kve4193902,kve4196431
kve4193902,kve4196018
kve4193902,kve4193933
kve4193902,kve4192936
kve4143987,kve4141067
kve4143987,kve4140560
kve4143987,kve4143406
kve4143987,kve4143342
kve4143987,kve4143614
kve4143987,kve4140943
kve4143987,kve4140607
kve4144921,kve4146428
kve4144921,kve4147995
kve4144921,kve4148482
kve4144921,kve4147375
kve4144921,kve4145261
kve4144921,kve4148567
kve4144921,kve4146787
kve4198785,kve4197931
kve4198785,kve4199487
kve4198785,kve4198034
kve4198785,kve4198456
kve4198785,kve4199838
kve4198785,kve4198866
kve4198785,kve4197227
kve4151506,kve4150438
kve4151506,kve4149168
kve4151506,kve4149088
kve4151506,kve4149097
kve4151506,kve4150941
kve4151506,kve4148740
kve4151506,kve4152849
kve4154894,kve4156765
kve4154894,kve4155223
kve4154894,kve4155553
kve4154894,kve4153249
kve4154894,kve4156549
kve4154894,kve4156277
kve4154894,kve4154144
kve4158598,kve4157705
kve4158598,kve4160715
kve4158598,kve4158406
kve4158598,kve4160030
kve4158598,kve4161827
kve4158598,kve4159326
kve4158598,kve4161182
kve4162388,kve4163277
kve4162388,kve4163109
kve4162388,kve4164235
kve4162388,kve4165517
kve4162388,kve4166361
kve4162388,kve4162288
kve4162388,kve4162163
kve4169665,kve4167754
kve4169665,kve4170111
kve4169665,kve4170480
kve4169665,kve4169599
kve4169665,kve4167241
kve4169665,kve4167320
kve4169665,kve4166766
kve4170985,kve4171321
kve4170985,kve4174215
kve4170985,kve4171459
kve4170985,kve4171954
kve4170985,kve4174699
kve4170985,kve4173055
kve4170985,kve4175318
kve4177551,kve4179461
kve4177551,kve4176058
kve4177551,kve4176290
kve4177551,kve4179195
kve4177551,kve4176074
kve4177551,kve4178052
kve4177551,kve4175554
kve4574451,kve4574803
kve4574451,kve4574468
kve4574451,kve4573986
kve4574451,kve4573907
kve4574451,kve4573869
kve4574451,kve4575317
kve4574451,kve4575859
kve603187,kve603798
kve603187,kve603867
kve603187,kve603954
kve603187,kve604039
kve603187,kve603397
kve603187,kve712494
kve603187,kve713049
kve723320,kve725953
kve723320,kve726406
kve723320,kve726714
kve723320,kve727072
kve723320,kve723321
kve723320,kve723561
kve723320,kve724261
kve719352,kve721985
kve719352,kve722438
kve719352,kve722746
kve719352,kve723104
kve719352,kve719353
kve719352,kve719593
kve719352,kve720293
kve4021636,kve4043121
kve4021636,kve4043299
kve4021636,kve4043507
kve4021636,kve4022096
kve4021636,kve4022311
kve4021636,kve4043724
kve4021636,kve4044292
kve604209,kve604210
kve604209,kve604296
kve604209,kve604465
kve604209,kve715804
kve604209,kve609060
kve604209,kve714426
kve604209,kve715095
kve4128890,kve4130175
kve4128890,kve4128891
kve4128890,kve4129064
kve4128890,kve4129632
kve762244,kve762245
kve762244,kve762913
kve4126519,kve4126520
kve4126519,kve4679490
kve4707842,kve4707862
kve4707842,kve4739543
kve4707842,kve4707638
kve4707842,kve5147483