Type,Name,Request Count,Failure Count,Median Response Time,Average Response Time,Min Response Time,Max Response Time,Average Content Size,Requests/s,Failures/s,50%,66%,75%,80%,90%,95%,98%,99%,99.9%,99.99%,100%
POST,/fiber_ms/v3/content-status,70945,0,58,597.7487349355134,30,4441,64.0,494.75592668223584,0.0,58,270,810,1200,2300,2800,3400,3500,4200,4400,4400
,Aggregated,70945,0,58,597.7487349355134,30,4441,64.0,494.75592668223584,0.0,58,270,810,1200,2300,2800,3400,3500,4200,4400,4400
