Type,Name,Request Count,Failure Count,Median Response Time,Average Response Time,Min Response Time,Max Response Time,Average Content Size,Requests/s,Failures/s,50%,66%,75%,80%,90%,95%,98%,99%,99.9%,99.99%,100%
POST,/de/generic/query?id=a67428e4-e20f-42b1-8824-ddbbc9d571c6,1161,0,1000,993.0060292850991,98,2167,142.0,129.08755678081025,0.0,1000,1100,1300,1400,1600,1800,2000,2000,2200,2200,2200
,Aggregated,1161,0,1000,993.0060292850991,98,2167,142.0,129.08755678081025,0.0,1000,1100,1300,1400,1600,1800,2000,2000,2200,2200,2200
