Type,Name,Request Count,Failure Count,Median Response Time,Average Response Time,Min Response Time,Max Response Time,Average Content Size,Requests/s,Failures/s,50%,66%,75%,80%,90%,95%,98%,99%,99.9%,99.99%,100%
POST,/de/generic/query?id=b981da49-807a-4a19-89b7-3b6bd77e15e0,1245,0,930,882.0016064257028,87,2213,55.05301204819277,138.04226832112334,0.0,930,1000,1100,1200,1500,1700,1900,2100,2200,2200,2200
,Aggregated,1245,0,930,882.0016064257028,87,2213,55.05301204819277,138.04226832112334,0.0,930,1000,1100,1200,1500,1700,1900,2100,2200,2200,2200
