Type,Name,Request Count,Failure Count,Median Response Time,Average Response Time,Min Response Time,Max Response Time,Average Content Size,Requests/s,Failures/s,50%,66%,75%,80%,90%,95%,98%,99%,99.9%,99.99%,100%
POST,/de/generic/query?id=e7f3d921-2bc5-4d55-ae5f-83294a5b7013,894,0,1000,983.4082774049217,190,2216,55.922818791946305,111.7273578037898,0.0,1000,1100,1200,1300,1600,1800,2000,2000,2200,2200,2200
,Aggregated,894,0,1000,983.4082774049217,190,2216,55.922818791946305,111.7273578037898,0.0,1000,1100,1200,1300,1600,1800,2000,2000,2200,2200,2200
