Type,Name,Request Count,Failure Count,Median Response Time,Average Response Time,Min Response Time,Max Response Time,Average Content Size,Requests/s,Failures/s,50%,66%,75%,80%,90%,95%,98%,99%,99.9%,99.99%,100%
POST,/de/generic/query?id=6b2ddfba-0cb8-47de-8b12-783c1bf53189,1264,0,1000,909.0007911392405,88,2064,57.307753164556964,140.12267118687538,0.0,1000,1100,1300,1400,1500,1600,1700,1800,2100,2100,2100
,Aggregated,1264,0,1000,909.0007911392405,88,2064,57.307753164556964,140.12267118687538,0.0,1000,1100,1300,1400,1500,1600,1700,1800,2100,2100,2100
