en,/cbse/6th-cbse
hi,/cbse/6th-cbse
en,/cbse/7th-cbse
hi,/cbse/7th-cbse
en,/cbse/8th-cbse
hi,/cbse/8th-cbse
en,/cbse/9th-cbse
hi,/cbse/9th-cbse
en,/cbse/10th-cbse
hi,/cbse/10th-cbse
en,/cbse/11th-cbse
hi,/cbse/11th-cbse
en,/cbse/12th-cbse
hi,/cbse/12th-cbse